"","template.ID","n_regions","n_samples","t.stat","p.value","ratio","template.organism.name"
"1","GCF_000005845.2_ASM584v2",6,57,23.4768781886448,0.017,0.440694950850193," Escherichia coli str. K-12 substr. MG1655"
"2","GCF_000006865.1_ASM686v1",3,6,2.76090843488998,0.014,0.0561048296621868," Lactococcus lactis subsp. lactis Il1403 "
"3","GCF_000006925.2_ASM692v2",6,18,5.2792048219929,0.503,0.945434152865504," Shigella flexneri 2a str. 301 "
"4","GCF_000007525.1_ASM752v1",6,32,13.8251020012117,0.001,0.235619437635533," Bifidobacterium longum NCC2705"
"5","GCF_000008865.1_ASM886v1",6,26,8.01524008991505,0.558,1.09710581934543," Escherichia coli O157:H7 str. Sakai "
"6","GCF_000009225.2_ASM922v1",4,4,NA,0,NA," Pseudomonas fluorescens SBW25"
"7","GCF_000010425.1_ASM1042v1",6,48,23.5178598784816,0.001,0.201277622918028," Bifidobacterium adolescentis ATCC 15703"
"8","GCF_000011845.1_ASM1184v1",3,10,5.0771217709269,0.009,0.0110665564572246," Streptococcus thermophilus CNRZ1066"
"9","GCF_000012305.1_ASM1230v1",3,4,0,1,0.0448246734936459," Psychrobacter arcticus 273-4"
"10","GCF_000012825.1_ASM1282v1",5,22,10.6166085924417,0.002,0.272553198532314," Bacteroides vulgatus ATCC 8482"
"11","GCF_000013905.1_ASM1390v1",3,5,2.3923852947381,0.208,0.0106079937132794," Psychrobacter cryohalolentis K5"
"12","GCF_000014025.1_ASM1402v1",3,4,0,1,0.00295536471013895," Arcobacter butzleri RM4018"
"13","GCF_000015545.1_ASM1554v1",5,11,4.07768539530943,0.143,0.329535516224901," Acidovorax sp. JS42"
"14","GCF_000019565.1_ASM1956v1",5,19,6.73437342735021,0.649,1.22076461332595," Klebsiella pneumoniae 342"
"15","GCF_000020225.1_ASM2022v1",6,54,25.8233808292161,0.002,0.463224790161472," Akkermansia muciniphila ATCC BAA-835"
"16","GCF_000020605.1_ASM2060v1",6,48,24.063288315842,0.001,0.164806635166531," Eubacterium rectale ATCC 33656"
"17","GCF_000021025.1_ASM2102v1",3,4,0,1,0.889549336138306," Laribacter hongkongensis HLHK9"
"18","GCF_000022305.1_ASM2230v1",5,12,4.96249808961039,0.093,0.313349119047277," Acidovorax ebreus TPSY"
"19","GCF_000024405.1_ASM2440v1",5,26,11.5535830242873,0.019,0.359126907715512," Sebaldella termitidis ATCC 33386"
"20","GCF_000025565.1_ASM2556v1",4,8,2.77021327481746,0.298,0.323594979785019," Enterobacter cloacae subsp. cloacae ATCC 13047 "
"21","GCF_000026345.1_ASM2634v1",6,11,2.68996832722886,0.144,0.598973067525775," Escherichia coli IAI39 "
"22","GCF_000027125.1_ASM2712v1",6,43,16.9540118081205,0.167,0.517436659903421," Escherichia coli 042"
"23","GCF_000092325.1_ASM9232v1",6,21,8.2408154755982,0.001,0.159426058819591," Bifidobacterium longum subsp. longum JDM301"
"24","GCF_000093145.3_ASM9314v2",3,6,1.84109738107213,0.622,1.85076232223812," Comamonas testosteroni CNB-2"
"25","GCF_000146185.1_ASM14618v1",5,12,4.56924586115836,0.001,0.262400801773008," Eubacterium eligens ATCC 27750"
"26","GCF_000182835.1_ASM18283v1",4,5,0,1,0.225396546950009," Lactobacillus delbrueckii subsp. bulgaricus ND02"
"27","GCF_000183345.1_ASM18334v1",6,39,16.1321061978007,0.277,0.870774558225103," Escherichia coli O83:H1 str. NRG 857C "
"28","GCF_000196395.1_ASM19639v1",4,8,4.21856269316932,0.01,0.0186815712113328," Aeromonas salmonicida subsp. salmonicida A449"
"29","GCF_000196455.1_ASM19645v1",5,31,11.6093432422039,0.053,0.724163928747997," Clostridium sticklandii str. DSM 519 "
"30","GCF_000204115.1_ASM20411v1",3,4,0,1,0.150621387342114," Aeromonas veronii B565"
"31","GCF_000215345.2_ASM21534v3",3,4,0,1,0.00237540729212962," Arcobacter butzleri 7h1h"
"32","GCF_000224985.1_ASM22498v1",3,4,0,1,0.0252409624762472," Lactobacillus ruminis ATCC 27782"
"33","GCF_000240185.1_ASM24018v2",6,29,9.54758591715793,0.32,0.847423039352629," Klebsiella pneumoniae subsp. pneumoniae HS11286 "
"34","GCF_000246835.1_ASM24683v1",3,4,0,1,0.0958437611869279," Streptococcus infantarius subsp. infantarius CJ18"
"35","GCF_000253315.1_ASM25331v1",4,5,0,1,0.454916270701272," Streptococcus salivarius JIM8777"
"36","GCF_000253335.1_ASM25333v1",4,6,1.25721028914891,0.2,0.230085196990957," Streptococcus salivarius CCHSS3"
"37","GCF_000262325.2_ASM26232v2",5,16,7.03425992817999,0.008,0.104041697288176," Pseudomonas fluorescens A506"
"38","GCF_000276705.2_ASM27670v2",4,6,1.15106885647041,0.06,0.421158600490623," Klebsiella oxytoca E718"
"39","GCF_000284355.1_ASM28435v1",3,4,0,1,0.00189585470401694," Arcobacter butzleri ED-1"
"40","GCF_000286275.1_ASM28627v1",4,13,4.96680068169896,0.086,0.386953098159076," Enterobacter cloacae subsp. cloacae ENHKU01"
"41","GCF_000287215.2_ASM28721v3",5,20,10.997003856352,0.001,0.017966484230164," Aeromonas media WS"
"42","GCF_000302535.1_ASM30253v1",6,53,27.6618401682588,0.001,0.116225331618781," Acidovorax sp. KKS102"
"43","GCF_000344575.1_ASM34457v1",3,5,2.28446106222702,0.095,0.0346733829196841," Lactococcus lactis subsp. lactis IO-1"
"44","GCF_000367425.1_ASM36742v1",3,4,0,1,0.317205986229737," Raoultella ornithinolytica B6"
"45","GCF_000418305.1_ASM41830v1",3,5,2.38543711187327,0.213,0.0119885308620983," Psychrobacter sp. G"
"46","GCF_000441535.1_ASM44153v1",3,4,0,1,0.0947289335076074," Streptococcus lutetiensis 033"
"47","GCF_000448685.2_ASM44868v2",4,7,2.22101881816034,0.103,0.252598228225293," Streptococcus salivarius strain HSISS4"
"48","GCF_000512185.1_ASM51218v1",5,18,9.59721040663062,0.002,0.0102554033682322," Aeromonas hydrophila 4AK4"
"49","GCF_000599665.1_ASM59966v1",6,10,2.12844975305019,0.459,0.833340799301763," Escherichia coli strain ST2747"
"50","GCF_000612075.2_ASM61207v2",3,6,2.26843189804377,1,8.15770505663258," Aeromonas hydrophila YL17"
"51","GCF_000632395.1_ASM63239v1",2,5,1.81676892565401,1,2.26090731707317," Enterobacter asburiae L1"
"52","GCF_000648515.1_ASM64851v1",4,6,1.04969486071457,0.767,1.37169361775246," Citrobacter freundii CFNIH1"
"53","GCF_000724505.1_ASM72450v1",3,6,3.0899615091475,0.115,0.00753286042454373," Enterobacter cloacae ECNIH2"
"54","GCF_000730425.1_ASM73042v1",3,6,2.6679435464283,0.072,0.0763512195884413," Pseudomonas fluorescens strain UK4"
"55","GCF_000761115.1_ASM76111v1",3,5,1.46666086754891,0.133,0.15044400856537," Lactococcus lactis strain AI06"
"56","GCF_000800455.1_ASM80045v1",4,6,2.41557768321491,0.372,0.0163470544298086," Bifidobacterium kashiwanohense PV20-2"
"57","GCF_000801755.2_ASM80175v2",4,17,7.67624181015391,0.038,0.340380907726298," Enterobacter sp. E20"
"58","GCF_000807405.2_ASM80740v4",3,7,3.3813147965065,0.156,0.0665432058573537," Enterobacter cloacae strain 34978"
"59","GCF_000807415.2_ASM80741v4",4,17,6.82998437438717,0.256,0.662061703502575," Enterobacter asburiae strain 35734"
"60","GCF_000934565.1_ASM93456v1",5,11,3.64629329129557,0.021,0.134559183787029," Pseudomonas fluorescens strain PCL1751"
"61","GCF_000940915.1_ASM94091v1",1,4,NA,0,NA," Aeromonas hydrophila strain AL06-06"
"62","GCF_000968415.1_ASM96841v1",5,8,3.00398896129078,0.014,0.0504365403167757," Pseudomonas fluorescens strain LBUM223"
"63","GCF_001022095.1_ASM102209v1",4,20,8.55353179787694,0.099,0.521224675579347," Enterobacter asburiae strain CAV1043"
"64","GCF_001022155.1_ASM102215v1",4,13,4.39352740467195,0.809,1.4899282097052," Citrobacter freundii strain CAV1321"
"65","GCF_001025195.1_ASM102519v1",6,11,5.75818252568648,0.001,0.0247136984459651," Bifidobacterium catenulatum DSM 16992 = JCM 1194 = LMG 11043"
"66","GCF_001025215.1_ASM102521v1",5,14,8.29703626154751,0.001,0.00354788824475417," Bifidobacterium pseudocatenulatum DSM 20438 = JCM 1200 = LMG 10505"
"67","GCF_001042615.1_ASM104261v1",4,5,0,1,0.0158903251496074," Bifidobacterium kashiwanohense JCM 15439 = DSM 21854 DNA"
"68","GCF_001186335.1_ASM118633v1",4,4,NA,0,NA," Pseudomonas trivialis strain IHBB745"
"69","GCF_001278715.1_ASM127871v1",3,14,7.1541414151694,0.258,14.0646816619277," Acinetobacter sp. TTH0-4"
"70","GCF_001278905.1_ASM127890v1",6,26,8.40101704760394,0.361,0.845399655644104," Klebsiella variicola strain HKUOPLA"
"71","GCF_001281005.1_ASM128100v1",4,11,3.37650820299004,0.765,1.31150222728401," Citrobacter freundii strain P10159"
"72","GCF_001294575.1_ASM129457v1",5,7,3.68708274090081,0.04,0.00204553838720361," Pseudomonas versuta L10.10"
"73","GCF_001304715.1_ASM130471v1",5,6,0,1,13.9358813487878," Megasphaera elsdenii 14-14"
"74","GCF_001314995.1_ASM131499v1",3,4,0,1,0.365407784830149," Bacteroides ovatus strain ATCC 8483"
"75","GCF_001406795.1_Comamonas_testosteroni_P19",3,6,1.84495868460071,0.62,1.78169460638438," Comamonas testosteroni P19"
"76","GCF_001420955.1_ASM142095v1",6,43,18.0968611633411,0.039,0.377793374583678," Escherichia coli O157:H7 str. 2009EL2109"
"77","GCF_001484935.1_ASM148493v1",6,71,33.4158132359645,0.074,0.266780400499494," Acinetobacter johnsonii XBB1"
"78","GCF_001543265.1_ASM154326v1",5,7,3.95736077640439,0.045,0.000933112859639339," Pseudomonas fragi strain P121"
"79","GCF_001548315.1_ASM154831v1",4,7,1.53926771523686,0.727,0.776714208297493," Klebsiella pneumoniae DNA  strain: YH43"
"80","GCF_001548355.1_ASM154835v1",4,7,1.91958258210942,0.788,0.793399411678025," Klebsiella oxytoca DNA  strain: JKo3"
"81","GCF_001553955.1_ASM155395v1",6,54,24.40165645765,0.001,0.274082937898934," Moraxella osloensis strain CCUG 350"
"82","GCF_001579805.1_ASM157980v1",4,4,NA,0,NA," Pseudomonas azotoformans strain S4"
"83","GCF_001593245.1_ASM159324v1",3,4,0,1,0.228847199393459," Aeromonas veronii strain TH0426"
"84","GCF_001597285.1_ASM159728v1",4,5,0,1,0.0523017707556968," Pseudomonas alcaligenes strain NEB 585"
"85","GCF_001634325.1_ASM163432v1",3,5,1.4353131416422,1,9.36133974664018," Aeromonas veronii strain AVNIH1"
"86","GCF_001636015.1_ASM163601v1",4,8,3.48774739975935,0.14,0.449452892967396," Moraxella ovis strain 199/55"
"87","GCF_001640865.1_ASM164086v1",5,21,10.7090989507957,0.001,0.13518914434403," Bacteroides dorei CL03T12C01"
"88","GCF_001647715.1_ASM164771v1",4,4,NA,0,NA," Pseudomonas antarctica strain PAMC 27494"
"89","GCF_001677475.1_ASM167747v1",3,4,0,1,0.548245614035088," Escherichia coli O36:H14 strain 06-00048"
"90","GCF_001708485.1_ASM170848v1",5,6,0,1,0.015584209046342," Pseudomonas fluorescens strain L228"
"91","GCF_001865675.1_ASM186567v1",3,7,2.50252641821689,0.408,0.875418723369275," Janthinobacterium sp. 1_2014MBL_MicDiv"
"92","GCF_001888965.1_ASM188896v1",4,5,0,1,0.221223982772104," Lactobacillus delbrueckii subsp. sunkii strain JCM 17838"
"93","GCF_001895965.1_ASM189596v1",3,7,3.09116834762668,0.207,0.223587569386443," Aeromonas aquatica strain MX16A"
"94","GCF_001941805.1_ASM194180v1",3,8,3.35414946393052,0.648,1.53627002394355," Acinetobacter junii strain 65"
"95","GCF_001971565.1_ASM197156v1",2,4,1.4142135623731,1,0.0279231194616871," Acinetobacter schindleri strain ACE"
