12.fsa	18.fsa	18a.fsa	19.fsa	22.fsa	22b.fsa	24.fsa	27.fsa	35.fsa	41.fsa	49.fsa	49b.fsa	53.fsa	63.fsa	65.fsa	68.fsa	72.fsa	74.fsa	74b.fsa	74c.fsa	74e.fsa	74f.fsa	74g.fsa	74h.fsa	74i.fsa	75.fsa
0.00000000	327.00000000	379.00000000	224.00000000	550.00000000	651.00000000	308.00000000	1196.00000000	549.00000000	421.00000000	259.00000000	338.00000000	512.00000000	414.00000000	1183.00000000	370.00000000	279.00000000	581.00000000	419.00000000	506.00000000	684.00000000	610.00000000	608.00000000	705.00000000	311.00000000	302.00000000
327.00000000	0.00000000	57.00000000	358.00000000	187.00000000	169.00000000	263.00000000	1221.00000000	317.00000000	316.00000000	440.00000000	210.00000000	461.00000000	191.00000000	1625.00000000	456.00000000	335.00000000	281.00000000	142.00000000	122.00000000	169.00000000	168.00000000	158.00000000	247.00000000	322.00000000	116.00000000
379.00000000	57.00000000	0.00000000	308.00000000	192.00000000	323.00000000	295.00000000	1384.00000000	241.00000000	292.00000000	420.00000000	222.00000000	402.00000000	158.00000000	1687.00000000	396.00000000	325.00000000	223.00000000	161.00000000	157.00000000	160.00000000	162.00000000	138.00000000	134.00000000	276.00000000	85.00000000
224.00000000	358.00000000	308.00000000	0.00000000	457.00000000	924.00000000	291.00000000	1075.00000000	556.00000000	379.00000000	257.00000000	171.00000000	529.00000000	420.00000000	1405.00000000	611.00000000	283.00000000	732.00000000	347.00000000	375.00000000	506.00000000	484.00000000	476.00000000	617.00000000	339.00000000	337.00000000
550.00000000	187.00000000	192.00000000	457.00000000	0.00000000	162.00000000	473.00000000	545.00000000	464.00000000	224.00000000	431.00000000	268.00000000	574.00000000	396.00000000	1157.00000000	187.00000000	409.00000000	106.00000000	142.00000000	118.00000000	119.00000000	99.00000000	120.00000000	82.00000000	198.00000000	111.00000000
651.00000000	169.00000000	323.00000000	924.00000000	162.00000000	0.00000000	679.00000000	933.00000000	643.00000000	329.00000000	461.00000000	337.00000000	573.00000000	671.00000000	1199.00000000	255.00000000	452.00000000	101.00000000	192.00000000	220.00000000	206.00000000	280.00000000	202.00000000	112.00000000	292.00000000	51.00000000
308.00000000	263.00000000	295.00000000	291.00000000	473.00000000	679.00000000	0.00000000	1544.00000000	132.00000000	283.00000000	278.00000000	161.00000000	413.00000000	140.00000000	1785.00000000	402.00000000	280.00000000	464.00000000	391.00000000	380.00000000	480.00000000	467.00000000	455.00000000	581.00000000	254.00000000	238.00000000
1196.00000000	1221.00000000	1384.00000000	1075.00000000	545.00000000	933.00000000	1544.00000000	0.00000000	2295.00000000	474.00000000	1137.00000000	1168.00000000	1429.00000000	1509.00000000	547.00000000	576.00000000	1295.00000000	1441.00000000	887.00000000	928.00000000	1128.00000000	1069.00000000	1206.00000000	1746.00000000	709.00000000	703.00000000
549.00000000	317.00000000	241.00000000	556.00000000	464.00000000	643.00000000	132.00000000	2295.00000000	0.00000000	465.00000000	618.00000000	344.00000000	643.00000000	115.00000000	2646.00000000	644.00000000	417.00000000	467.00000000	313.00000000	204.00000000	315.00000000	314.00000000	327.00000000	434.00000000	438.00000000	232.00000000
421.00000000	316.00000000	292.00000000	379.00000000	224.00000000	329.00000000	283.00000000	474.00000000	465.00000000	0.00000000	494.00000000	267.00000000	574.00000000	291.00000000	538.00000000	285.00000000	409.00000000	506.00000000	308.00000000	288.00000000	360.00000000	384.00000000	364.00000000	509.00000000	269.00000000	164.00000000
259.00000000	440.00000000	420.00000000	257.00000000	431.00000000	461.00000000	278.00000000	1137.00000000	618.00000000	494.00000000	0.00000000	60.00000000	577.00000000	401.00000000	1274.00000000	352.00000000	290.00000000	474.00000000	357.00000000	357.00000000	467.00000000	429.00000000	407.00000000	559.00000000	321.00000000	233.00000000
338.00000000	210.00000000	222.00000000	171.00000000	268.00000000	337.00000000	161.00000000	1168.00000000	344.00000000	267.00000000	60.00000000	0.00000000	378.00000000	320.00000000	1324.00000000	268.00000000	213.00000000	267.00000000	257.00000000	349.00000000	362.00000000	326.00000000	340.00000000	362.00000000	227.00000000	206.00000000
512.00000000	461.00000000	402.00000000	529.00000000	574.00000000	573.00000000	413.00000000	1429.00000000	643.00000000	574.00000000	577.00000000	378.00000000	0.00000000	470.00000000	1755.00000000	653.00000000	468.00000000	726.00000000	471.00000000	416.00000000	611.00000000	569.00000000	566.00000000	769.00000000	551.00000000	437.00000000
414.00000000	191.00000000	158.00000000	420.00000000	396.00000000	671.00000000	140.00000000	1509.00000000	115.00000000	291.00000000	401.00000000	320.00000000	470.00000000	0.00000000	1679.00000000	473.00000000	298.00000000	480.00000000	274.00000000	345.00000000	414.00000000	388.00000000	384.00000000	432.00000000	146.00000000	117.00000000
1183.00000000	1625.00000000	1687.00000000	1405.00000000	1157.00000000	1199.00000000	1785.00000000	547.00000000	2646.00000000	538.00000000	1274.00000000	1324.00000000	1755.00000000	1679.00000000	0.00000000	627.00000000	1463.00000000	1570.00000000	1219.00000000	1216.00000000	1424.00000000	1394.00000000	1431.00000000	2011.00000000	655.00000000	626.00000000
370.00000000	456.00000000	396.00000000	611.00000000	187.00000000	255.00000000	402.00000000	576.00000000	644.00000000	285.00000000	352.00000000	268.00000000	653.00000000	473.00000000	627.00000000	0.00000000	415.00000000	469.00000000	306.00000000	306.00000000	366.00000000	376.00000000	270.00000000	375.00000000	240.00000000	128.00000000
279.00000000	335.00000000	325.00000000	283.00000000	409.00000000	452.00000000	280.00000000	1295.00000000	417.00000000	409.00000000	290.00000000	213.00000000	468.00000000	298.00000000	1463.00000000	415.00000000	0.00000000	511.00000000	289.00000000	303.00000000	404.00000000	346.00000000	335.00000000	534.00000000	315.00000000	229.00000000
581.00000000	281.00000000	223.00000000	732.00000000	106.00000000	101.00000000	464.00000000	1441.00000000	467.00000000	506.00000000	474.00000000	267.00000000	726.00000000	480.00000000	1570.00000000	469.00000000	511.00000000	0.00000000	95.00000000	84.00000000	84.00000000	87.00000000	62.00000000	80.00000000	372.00000000	110.00000000
419.00000000	142.00000000	161.00000000	347.00000000	142.00000000	192.00000000	391.00000000	887.00000000	313.00000000	308.00000000	357.00000000	257.00000000	471.00000000	274.00000000	1219.00000000	306.00000000	289.00000000	95.00000000	0.00000000	39.00000000	27.00000000	42.00000000	68.00000000	126.00000000	238.00000000	141.00000000
506.00000000	122.00000000	157.00000000	375.00000000	118.00000000	220.00000000	380.00000000	928.00000000	204.00000000	288.00000000	357.00000000	349.00000000	416.00000000	345.00000000	1216.00000000	306.00000000	303.00000000	84.00000000	39.00000000	0.00000000	12.00000000	13.00000000	17.00000000	56.00000000	180.00000000	107.00000000
684.00000000	169.00000000	160.00000000	506.00000000	119.00000000	206.00000000	480.00000000	1128.00000000	315.00000000	360.00000000	467.00000000	362.00000000	611.00000000	414.00000000	1424.00000000	366.00000000	404.00000000	84.00000000	27.00000000	12.00000000	0.00000000	11.00000000	5.00000000	30.00000000	265.00000000	136.00000000
610.00000000	168.00000000	162.00000000	484.00000000	99.00000000	280.00000000	467.00000000	1069.00000000	314.00000000	384.00000000	429.00000000	326.00000000	569.00000000	388.00000000	1394.00000000	376.00000000	346.00000000	87.00000000	42.00000000	13.00000000	11.00000000	0.00000000	19.00000000	67.00000000	245.00000000	124.00000000
608.00000000	158.00000000	138.00000000	476.00000000	120.00000000	202.00000000	455.00000000	1206.00000000	327.00000000	364.00000000	407.00000000	340.00000000	566.00000000	384.00000000	1431.00000000	270.00000000	335.00000000	62.00000000	68.00000000	17.00000000	5.00000000	19.00000000	0.00000000	76.00000000	218.00000000	136.00000000
705.00000000	247.00000000	134.00000000	617.00000000	82.00000000	112.00000000	581.00000000	1746.00000000	434.00000000	509.00000000	559.00000000	362.00000000	769.00000000	432.00000000	2011.00000000	375.00000000	534.00000000	80.00000000	126.00000000	56.00000000	30.00000000	67.00000000	76.00000000	0.00000000	306.00000000	76.00000000
311.00000000	322.00000000	276.00000000	339.00000000	198.00000000	292.00000000	254.00000000	709.00000000	438.00000000	269.00000000	321.00000000	227.00000000	551.00000000	146.00000000	655.00000000	240.00000000	315.00000000	372.00000000	238.00000000	180.00000000	265.00000000	245.00000000	218.00000000	306.00000000	0.00000000	29.00000000
302.00000000	116.00000000	85.00000000	337.00000000	111.00000000	51.00000000	238.00000000	703.00000000	232.00000000	164.00000000	233.00000000	206.00000000	437.00000000	117.00000000	626.00000000	128.00000000	229.00000000	110.00000000	141.00000000	107.00000000	136.00000000	124.00000000	136.00000000	76.00000000	29.00000000	0.00000000
