11.fsa	18a.fsa	19.fsa	22b.fsa	48.fsa	49b.fsa	54.fsa	8.fsa
0.00000000	1766.00000000	275.00000000	762.00000000	913.00000000	512.00000000	334.00000000	3640.00000000
1766.00000000	0.00000000	1174.00000000	670.00000000	744.00000000	609.00000000	824.00000000	5362.00000000
275.00000000	1174.00000000	0.00000000	489.00000000	934.00000000	435.00000000	460.00000000	2133.00000000
762.00000000	670.00000000	489.00000000	0.00000000	933.00000000	536.00000000	676.00000000	3232.00000000
913.00000000	744.00000000	934.00000000	933.00000000	0.00000000	408.00000000	489.00000000	1497.00000000
512.00000000	609.00000000	435.00000000	536.00000000	408.00000000	0.00000000	394.00000000	730.00000000
334.00000000	824.00000000	460.00000000	676.00000000	489.00000000	394.00000000	0.00000000	3359.00000000
3640.00000000	5362.00000000	2133.00000000	3232.00000000	1497.00000000	730.00000000	3359.00000000	0.00000000
