18a.fsa	22b.fsa	63.fsa	74d.fsa
0.00000000	1000.00000000	1549.00000000	931.00000000
1000.00000000	0.00000000	4807.00000000	1459.00000000
1549.00000000	4807.00000000	0.00000000	2486.00000000
931.00000000	1459.00000000	2486.00000000	0.00000000
