1.fsa	11.fsa	12.fsa	13.fsa	14a.fsa	15.fsa	18a.fsa	19.fsa	2.fsa	21.fsa	22.fsa	22b.fsa	27.fsa	29.fsa	35.fsa	41.fsa	48.fsa	49.fsa	49b.fsa	50.fsa	52.fsa	53a.fsa	54.fsa	63.fsa	7.fsa	70.fsa
0.00000000	1837.00000000	738.00000000	913.00000000	1557.00000000	944.00000000	362.00000000	412.00000000	2013.00000000	1376.00000000	919.00000000	581.00000000	1285.00000000	720.00000000	668.00000000	731.00000000	636.00000000	842.00000000	1357.00000000	1359.00000000	1005.00000000	945.00000000	1301.00000000	230.00000000	1971.00000000	1423.00000000
1837.00000000	0.00000000	52.00000000	44.00000000	42.00000000	74.00000000	68.00000000	93.00000000	50.00000000	89.00000000	179.00000000	77.00000000	77.00000000	71.00000000	81.00000000	138.00000000	124.00000000	50.00000000	56.00000000	82.00000000	96.00000000	45.00000000	28.00000000	87.00000000	44.00000000	70.00000000
738.00000000	52.00000000	0.00000000	66.00000000	78.00000000	54.00000000	56.00000000	82.00000000	47.00000000	95.00000000	170.00000000	31.00000000	62.00000000	99.00000000	113.00000000	116.00000000	62.00000000	80.00000000	36.00000000	91.00000000	143.00000000	65.00000000	33.00000000	41.00000000	32.00000000	56.00000000
913.00000000	44.00000000	66.00000000	0.00000000	44.00000000	34.00000000	31.00000000	59.00000000	78.00000000	71.00000000	317.00000000	30.00000000	88.00000000	137.00000000	75.00000000	195.00000000	69.00000000	59.00000000	11.00000000	50.00000000	166.00000000	62.00000000	32.00000000	26.00000000	61.00000000	87.00000000
1557.00000000	42.00000000	78.00000000	44.00000000	0.00000000	41.00000000	48.00000000	133.00000000	41.00000000	109.00000000	336.00000000	48.00000000	83.00000000	175.00000000	136.00000000	205.00000000	71.00000000	74.00000000	30.00000000	70.00000000	245.00000000	85.00000000	46.00000000	49.00000000	35.00000000	93.00000000
944.00000000	74.00000000	54.00000000	34.00000000	41.00000000	0.00000000	87.00000000	80.00000000	53.00000000	63.00000000	228.00000000	60.00000000	72.00000000	98.00000000	77.00000000	119.00000000	69.00000000	68.00000000	24.00000000	72.00000000	129.00000000	56.00000000	44.00000000	68.00000000	60.00000000	69.00000000
362.00000000	68.00000000	56.00000000	31.00000000	48.00000000	87.00000000	0.00000000	61.00000000	140.00000000	47.00000000	102.00000000	39.00000000	41.00000000	41.00000000	44.00000000	69.00000000	134.00000000	55.00000000	64.00000000	113.00000000	74.00000000	83.00000000	80.00000000	50.00000000	134.00000000	41.00000000
412.00000000	93.00000000	82.00000000	59.00000000	133.00000000	80.00000000	61.00000000	0.00000000	171.00000000	155.00000000	204.00000000	56.00000000	105.00000000	112.00000000	86.00000000	136.00000000	120.00000000	84.00000000	71.00000000	146.00000000	133.00000000	92.00000000	52.00000000	90.00000000	133.00000000	122.00000000
2013.00000000	50.00000000	47.00000000	78.00000000	41.00000000	53.00000000	140.00000000	171.00000000	0.00000000	110.00000000	271.00000000	80.00000000	78.00000000	152.00000000	146.00000000	134.00000000	161.00000000	86.00000000	38.00000000	79.00000000	380.00000000	81.00000000	83.00000000	48.00000000	35.00000000	72.00000000
1376.00000000	89.00000000	95.00000000	71.00000000	109.00000000	63.00000000	47.00000000	155.00000000	110.00000000	0.00000000	281.00000000	42.00000000	87.00000000	177.00000000	200.00000000	181.00000000	121.00000000	102.00000000	56.00000000	101.00000000	181.00000000	103.00000000	56.00000000	56.00000000	61.00000000	98.00000000
919.00000000	179.00000000	170.00000000	317.00000000	336.00000000	228.00000000	102.00000000	204.00000000	271.00000000	281.00000000	0.00000000	37.00000000	123.00000000	233.00000000	376.00000000	173.00000000	355.00000000	242.00000000	202.00000000	321.00000000	229.00000000	266.00000000	163.00000000	114.00000000	248.00000000	107.00000000
581.00000000	77.00000000	31.00000000	30.00000000	48.00000000	60.00000000	39.00000000	56.00000000	80.00000000	42.00000000	37.00000000	0.00000000	42.00000000	43.00000000	66.00000000	37.00000000	123.00000000	36.00000000	100.00000000	93.00000000	59.00000000	58.00000000	41.00000000	25.00000000	80.00000000	28.00000000
1285.00000000	77.00000000	62.00000000	88.00000000	83.00000000	72.00000000	41.00000000	105.00000000	78.00000000	87.00000000	123.00000000	42.00000000	0.00000000	94.00000000	142.00000000	104.00000000	143.00000000	89.00000000	87.00000000	131.00000000	179.00000000	70.00000000	90.00000000	45.00000000	69.00000000	74.00000000
720.00000000	71.00000000	99.00000000	137.00000000	175.00000000	98.00000000	41.00000000	112.00000000	152.00000000	177.00000000	233.00000000	43.00000000	94.00000000	0.00000000	181.00000000	167.00000000	187.00000000	142.00000000	85.00000000	177.00000000	143.00000000	142.00000000	85.00000000	60.00000000	115.00000000	112.00000000
668.00000000	81.00000000	113.00000000	75.00000000	136.00000000	77.00000000	44.00000000	86.00000000	146.00000000	200.00000000	376.00000000	66.00000000	142.00000000	181.00000000	0.00000000	221.00000000	61.00000000	124.00000000	63.00000000	125.00000000	200.00000000	129.00000000	68.00000000	63.00000000	146.00000000	158.00000000
731.00000000	138.00000000	116.00000000	195.00000000	205.00000000	119.00000000	69.00000000	136.00000000	134.00000000	181.00000000	173.00000000	37.00000000	104.00000000	167.00000000	221.00000000	0.00000000	191.00000000	157.00000000	116.00000000	199.00000000	147.00000000	166.00000000	109.00000000	51.00000000	156.00000000	83.00000000
636.00000000	124.00000000	62.00000000	69.00000000	71.00000000	69.00000000	134.00000000	120.00000000	161.00000000	121.00000000	355.00000000	123.00000000	143.00000000	187.00000000	61.00000000	191.00000000	0.00000000	68.00000000	92.00000000	111.00000000	144.00000000	90.00000000	84.00000000	82.00000000	137.00000000	125.00000000
842.00000000	50.00000000	80.00000000	59.00000000	74.00000000	68.00000000	55.00000000	84.00000000	86.00000000	102.00000000	242.00000000	36.00000000	89.00000000	142.00000000	124.00000000	157.00000000	68.00000000	0.00000000	25.00000000	98.00000000	158.00000000	89.00000000	54.00000000	30.00000000	55.00000000	93.00000000
1357.00000000	56.00000000	36.00000000	11.00000000	30.00000000	24.00000000	64.00000000	71.00000000	38.00000000	56.00000000	202.00000000	100.00000000	87.00000000	85.00000000	63.00000000	116.00000000	92.00000000	25.00000000	0.00000000	77.00000000	122.00000000	47.00000000	56.00000000	74.00000000	42.00000000	90.00000000
1359.00000000	82.00000000	91.00000000	50.00000000	70.00000000	72.00000000	113.00000000	146.00000000	79.00000000	101.00000000	321.00000000	93.00000000	131.00000000	177.00000000	125.00000000	199.00000000	111.00000000	98.00000000	77.00000000	0.00000000	202.00000000	102.00000000	60.00000000	116.00000000	77.00000000	130.00000000
1005.00000000	96.00000000	143.00000000	166.00000000	245.00000000	129.00000000	74.00000000	133.00000000	380.00000000	181.00000000	229.00000000	59.00000000	179.00000000	143.00000000	200.00000000	147.00000000	144.00000000	158.00000000	122.00000000	202.00000000	0.00000000	177.00000000	80.00000000	113.00000000	288.00000000	197.00000000
945.00000000	45.00000000	65.00000000	62.00000000	85.00000000	56.00000000	83.00000000	92.00000000	81.00000000	103.00000000	266.00000000	58.00000000	70.00000000	142.00000000	129.00000000	166.00000000	90.00000000	89.00000000	47.00000000	102.00000000	177.00000000	0.00000000	42.00000000	46.00000000	65.00000000	113.00000000
1301.00000000	28.00000000	33.00000000	32.00000000	46.00000000	44.00000000	80.00000000	52.00000000	83.00000000	56.00000000	163.00000000	41.00000000	90.00000000	85.00000000	68.00000000	109.00000000	84.00000000	54.00000000	56.00000000	60.00000000	80.00000000	42.00000000	0.00000000	65.00000000	64.00000000	62.00000000
230.00000000	87.00000000	41.00000000	26.00000000	49.00000000	68.00000000	50.00000000	90.00000000	48.00000000	56.00000000	114.00000000	25.00000000	45.00000000	60.00000000	63.00000000	51.00000000	82.00000000	30.00000000	74.00000000	116.00000000	113.00000000	46.00000000	65.00000000	0.00000000	95.00000000	55.00000000
1971.00000000	44.00000000	32.00000000	61.00000000	35.00000000	60.00000000	134.00000000	133.00000000	35.00000000	61.00000000	248.00000000	80.00000000	69.00000000	115.00000000	146.00000000	156.00000000	137.00000000	55.00000000	42.00000000	77.00000000	288.00000000	65.00000000	64.00000000	95.00000000	0.00000000	90.00000000
1423.00000000	70.00000000	56.00000000	87.00000000	93.00000000	69.00000000	41.00000000	122.00000000	72.00000000	98.00000000	107.00000000	28.00000000	74.00000000	112.00000000	158.00000000	83.00000000	125.00000000	93.00000000	90.00000000	130.00000000	197.00000000	113.00000000	62.00000000	55.00000000	90.00000000	0.00000000
