14.fsa	22b.fsa	41.fsa	46.fsa	56.fsa	59.fsa	74d.fsa
0.00000000	1230.00000000	2577.00000000	1445.00000000	1986.00000000	739.00000000	1556.00000000
1230.00000000	0.00000000	3227.00000000	647.00000000	3876.00000000	871.00000000	1244.00000000
2577.00000000	3227.00000000	0.00000000	5471.00000000	1634.00000000	1834.00000000	2998.00000000
1445.00000000	647.00000000	5471.00000000	0.00000000	4496.00000000	1404.00000000	1484.00000000
1986.00000000	3876.00000000	1634.00000000	4496.00000000	0.00000000	3089.00000000	5714.00000000
739.00000000	871.00000000	1834.00000000	1404.00000000	3089.00000000	0.00000000	518.00000000
1556.00000000	1244.00000000	2998.00000000	1484.00000000	5714.00000000	518.00000000	0.00000000
