15.fsa	18a.fsa	48.fsa	49b.fsa	53.fsa	72.fsa
0.00000000	542.00000000	4951.00000000	733.00000000	638.00000000	274.00000000
542.00000000	0.00000000	8610.00000000	1264.00000000	1504.00000000	434.00000000
4951.00000000	8610.00000000	0.00000000	2593.00000000	2722.00000000	8236.00000000
733.00000000	1264.00000000	2593.00000000	0.00000000	756.00000000	1168.00000000
638.00000000	1504.00000000	2722.00000000	756.00000000	0.00000000	1136.00000000
274.00000000	434.00000000	8236.00000000	1168.00000000	1136.00000000	0.00000000
