10.fsa	14.fsa	17.fsa	18.fsa	22b.fsa	22c.fsa	40.fsa	46.fsa	48.fsa	56.fsa	59.fsa	69.fsa	70.fsa	74a.fsa	74d.fsa	8.fsa
0.00000000	1305.00000000	1195.00000000	1098.00000000	1912.00000000	1071.00000000	2089.00000000	1235.00000000	3343.00000000	1229.00000000	2060.00000000	1576.00000000	1338.00000000	1953.00000000	1578.00000000	2343.00000000
1305.00000000	0.00000000	85.00000000	63.00000000	105.00000000	240.00000000	690.00000000	96.00000000	426.00000000	303.00000000	94.00000000	417.00000000	163.00000000	99.00000000	184.00000000	247.00000000
1195.00000000	85.00000000	0.00000000	126.00000000	207.00000000	297.00000000	7446.00000000	143.00000000	771.00000000	436.00000000	393.00000000	341.00000000	214.00000000	184.00000000	292.00000000	2234.00000000
1098.00000000	63.00000000	126.00000000	0.00000000	161.00000000	332.00000000	4287.00000000	147.00000000	620.00000000	367.00000000	123.00000000	849.00000000	257.00000000	228.00000000	287.00000000	911.00000000
1912.00000000	105.00000000	207.00000000	161.00000000	0.00000000	306.00000000	2442.00000000	260.00000000	390.00000000	293.00000000	565.00000000	827.00000000	304.00000000	254.00000000	302.00000000	659.00000000
1071.00000000	240.00000000	297.00000000	332.00000000	306.00000000	0.00000000	3738.00000000	162.00000000	455.00000000	118.00000000	359.00000000	614.00000000	302.00000000	250.00000000	297.00000000	1033.00000000
2089.00000000	690.00000000	7446.00000000	4287.00000000	2442.00000000	3738.00000000	0.00000000	1173.00000000	768.00000000	718.00000000	4831.00000000	9067.00000000	1792.00000000	2964.00000000	3336.00000000	458.00000000
1235.00000000	96.00000000	143.00000000	147.00000000	260.00000000	162.00000000	1173.00000000	0.00000000	448.00000000	305.00000000	180.00000000	329.00000000	192.00000000	189.00000000	195.00000000	310.00000000
3343.00000000	426.00000000	771.00000000	620.00000000	390.00000000	455.00000000	768.00000000	448.00000000	0.00000000	421.00000000	962.00000000	1468.00000000	527.00000000	436.00000000	546.00000000	713.00000000
1229.00000000	303.00000000	436.00000000	367.00000000	293.00000000	118.00000000	718.00000000	305.00000000	421.00000000	0.00000000	591.00000000	554.00000000	256.00000000	250.00000000	342.00000000	464.00000000
2060.00000000	94.00000000	393.00000000	123.00000000	565.00000000	359.00000000	4831.00000000	180.00000000	962.00000000	591.00000000	0.00000000	437.00000000	296.00000000	237.00000000	263.00000000	921.00000000
1576.00000000	417.00000000	341.00000000	849.00000000	827.00000000	614.00000000	9067.00000000	329.00000000	1468.00000000	554.00000000	437.00000000	0.00000000	516.00000000	897.00000000	1072.00000000	3253.00000000
1338.00000000	163.00000000	214.00000000	257.00000000	304.00000000	302.00000000	1792.00000000	192.00000000	527.00000000	256.00000000	296.00000000	516.00000000	0.00000000	251.00000000	301.00000000	499.00000000
1953.00000000	99.00000000	184.00000000	228.00000000	254.00000000	250.00000000	2964.00000000	189.00000000	436.00000000	250.00000000	237.00000000	897.00000000	251.00000000	0.00000000	280.00000000	679.00000000
1578.00000000	184.00000000	292.00000000	287.00000000	302.00000000	297.00000000	3336.00000000	195.00000000	546.00000000	342.00000000	263.00000000	1072.00000000	301.00000000	280.00000000	0.00000000	739.00000000
2343.00000000	247.00000000	2234.00000000	911.00000000	659.00000000	1033.00000000	458.00000000	310.00000000	713.00000000	464.00000000	921.00000000	3253.00000000	499.00000000	679.00000000	739.00000000	0.00000000
