18a.fsa	19.fsa	22b.fsa	49b.fsa	54.fsa	8.fsa
0.00000000	2359.00000000	584.00000000	3389.00000000	799.00000000	21425.00000000
2359.00000000	0.00000000	811.00000000	124.00000000	620.00000000	1052.00000000
584.00000000	811.00000000	0.00000000	1153.00000000	719.00000000	8615.00000000
3389.00000000	124.00000000	1153.00000000	0.00000000	1002.00000000	148.00000000
799.00000000	620.00000000	719.00000000	1002.00000000	0.00000000	9806.00000000
21425.00000000	1052.00000000	8615.00000000	148.00000000	9806.00000000	0.00000000
