1.fsa	11.fsa	12.fsa	13.fsa	14a.fsa	15.fsa	18a.fsa	19.fsa	2.fsa	21.fsa	22.fsa	22b.fsa	25.fsa	27.fsa	29.fsa	32.fsa	35.fsa	36.fsa	37.fsa	38.fsa	41.fsa	41a.fsa	49.fsa	49b.fsa	50.fsa	52.fsa	53a.fsa	54.fsa	62.fsa	63.fsa	69.fsa	7.fsa	70.fsa	RD.fsa	72.fsa	74b.fsa	74c.fsa	74d.fsa	74f.fsa	74g.fsa	74h.fsa	75.fsa	8.fsa
0.00000000	2339.00000000	930.00000000	972.00000000	1801.00000000	1219.00000000	615.00000000	414.00000000	2401.00000000	1608.00000000	1034.00000000	907.00000000	1193.00000000	1550.00000000	931.00000000	1215.00000000	779.00000000	1135.00000000	1985.00000000	2080.00000000	880.00000000	1377.00000000	970.00000000	1549.00000000	1547.00000000	1091.00000000	1114.00000000	1663.00000000	1973.00000000	406.00000000	1379.00000000	2470.00000000	2021.00000000	1334.00000000	729.00000000	530.00000000	606.00000000	1149.00000000	613.00000000	509.00000000	599.00000000	520.00000000	520.00000000
2339.00000000	0.00000000	75.00000000	36.00000000	60.00000000	52.00000000	77.00000000	99.00000000	36.00000000	115.00000000	192.00000000	42.00000000	109.00000000	76.00000000	114.00000000	131.00000000	72.00000000	83.00000000	115.00000000	70.00000000	105.00000000	184.00000000	73.00000000	36.00000000	121.00000000	99.00000000	73.00000000	42.00000000	117.00000000	59.00000000	151.00000000	69.00000000	100.00000000	86.00000000	85.00000000	116.00000000	150.00000000	174.00000000	132.00000000	119.00000000	183.00000000	129.00000000	205.00000000
930.00000000	75.00000000	0.00000000	77.00000000	100.00000000	87.00000000	68.00000000	99.00000000	72.00000000	145.00000000	185.00000000	50.00000000	136.00000000	56.00000000	112.00000000	143.00000000	123.00000000	126.00000000	79.00000000	84.00000000	113.00000000	166.00000000	123.00000000	48.00000000	102.00000000	164.00000000	93.00000000	82.00000000	92.00000000	41.00000000	124.00000000	49.00000000	77.00000000	89.00000000	67.00000000	98.00000000	149.00000000	278.00000000	156.00000000	78.00000000	134.00000000	84.00000000	129.00000000
972.00000000	36.00000000	77.00000000	0.00000000	54.00000000	33.00000000	39.00000000	74.00000000	73.00000000	88.00000000	288.00000000	44.00000000	202.00000000	64.00000000	150.00000000	218.00000000	96.00000000	256.00000000	105.00000000	123.00000000	153.00000000	250.00000000	82.00000000	24.00000000	58.00000000	173.00000000	86.00000000	30.00000000	127.00000000	20.00000000	177.00000000	59.00000000	108.00000000	129.00000000	66.00000000	81.00000000	162.00000000	301.00000000	152.00000000	86.00000000	264.00000000	96.00000000	51.00000000
1801.00000000	60.00000000	100.00000000	54.00000000	0.00000000	59.00000000	90.00000000	174.00000000	55.00000000	137.00000000	339.00000000	40.00000000	269.00000000	109.00000000	159.00000000	214.00000000	125.00000000	240.00000000	114.00000000	152.00000000	179.00000000	289.00000000	124.00000000	34.00000000	89.00000000	268.00000000	133.00000000	47.00000000	134.00000000	74.00000000	206.00000000	52.00000000	138.00000000	132.00000000	103.00000000	133.00000000	212.00000000	465.00000000	257.00000000	126.00000000	294.00000000	145.00000000	104.00000000
1219.00000000	52.00000000	87.00000000	33.00000000	59.00000000	0.00000000	46.00000000	82.00000000	89.00000000	92.00000000	210.00000000	44.00000000	164.00000000	66.00000000	104.00000000	142.00000000	72.00000000	173.00000000	62.00000000	94.00000000	116.00000000	201.00000000	73.00000000	43.00000000	88.00000000	132.00000000	112.00000000	52.00000000	78.00000000	52.00000000	131.00000000	71.00000000	97.00000000	81.00000000	71.00000000	72.00000000	167.00000000	230.00000000	153.00000000	91.00000000	175.00000000	110.00000000	104.00000000
615.00000000	77.00000000	68.00000000	39.00000000	90.00000000	46.00000000	0.00000000	76.00000000	105.00000000	126.00000000	92.00000000	37.00000000	29.00000000	53.00000000	55.00000000	64.00000000	63.00000000	63.00000000	36.00000000	79.00000000	63.00000000	64.00000000	63.00000000	147.00000000	176.00000000	91.00000000	97.00000000	69.00000000	42.00000000	48.00000000	49.00000000	140.00000000	103.00000000	52.00000000	34.00000000	51.00000000	85.00000000	86.00000000	81.00000000	77.00000000	70.00000000	47.00000000	114.00000000
414.00000000	99.00000000	99.00000000	74.00000000	174.00000000	82.00000000	76.00000000	0.00000000	187.00000000	201.00000000	202.00000000	92.00000000	176.00000000	104.00000000	118.00000000	173.00000000	102.00000000	156.00000000	158.00000000	203.00000000	140.00000000	187.00000000	120.00000000	127.00000000	154.00000000	134.00000000	157.00000000	74.00000000	164.00000000	88.00000000	140.00000000	193.00000000	151.00000000	144.00000000	99.00000000	73.00000000	119.00000000	198.00000000	115.00000000	66.00000000	151.00000000	91.00000000	121.00000000
2401.00000000	36.00000000	72.00000000	73.00000000	55.00000000	89.00000000	105.00000000	187.00000000	0.00000000	128.00000000	226.00000000	67.00000000	188.00000000	95.00000000	148.00000000	227.00000000	165.00000000	143.00000000	100.00000000	128.00000000	147.00000000	263.00000000	135.00000000	23.00000000	93.00000000	328.00000000	103.00000000	79.00000000	155.00000000	54.00000000	205.00000000	50.00000000	107.00000000	118.00000000	150.00000000	107.00000000	230.00000000	532.00000000	203.00000000	102.00000000	263.00000000	135.00000000	157.00000000
1608.00000000	115.00000000	145.00000000	88.00000000	137.00000000	92.00000000	126.00000000	201.00000000	128.00000000	0.00000000	302.00000000	88.00000000	225.00000000	98.00000000	191.00000000	253.00000000	190.00000000	253.00000000	181.00000000	184.00000000	179.00000000	290.00000000	135.00000000	103.00000000	113.00000000	219.00000000	142.00000000	66.00000000	199.00000000	81.00000000	198.00000000	90.00000000	144.00000000	163.00000000	174.00000000	153.00000000	238.00000000	357.00000000	282.00000000	133.00000000	331.00000000	178.00000000	118.00000000
1034.00000000	192.00000000	185.00000000	288.00000000	339.00000000	210.00000000	92.00000000	202.00000000	226.00000000	302.00000000	0.00000000	43.00000000	127.00000000	131.00000000	205.00000000	169.00000000	355.00000000	181.00000000	249.00000000	157.00000000	145.00000000	152.00000000	262.00000000	218.00000000	333.00000000	255.00000000	253.00000000	173.00000000	180.00000000	60.00000000	111.00000000	237.00000000	99.00000000	146.00000000	258.00000000	121.00000000	182.00000000	190.00000000	165.00000000	129.00000000	106.00000000	91.00000000	281.00000000
907.00000000	42.00000000	50.00000000	44.00000000	40.00000000	44.00000000	37.00000000	92.00000000	67.00000000	88.00000000	43.00000000	0.00000000	29.00000000	51.00000000	36.00000000	36.00000000	81.00000000	28.00000000	38.00000000	32.00000000	33.00000000	40.00000000	61.00000000	108.00000000	191.00000000	69.00000000	72.00000000	79.00000000	43.00000000	39.00000000	23.00000000	147.00000000	49.00000000	21.00000000	58.00000000	48.00000000	53.00000000	89.00000000	52.00000000	49.00000000	23.00000000	27.00000000	110.00000000
1193.00000000	109.00000000	136.00000000	202.00000000	269.00000000	164.00000000	29.00000000	176.00000000	188.00000000	225.00000000	127.00000000	29.00000000	0.00000000	85.00000000	144.00000000	152.00000000	256.00000000	132.00000000	172.00000000	101.00000000	113.00000000	117.00000000	200.00000000	127.00000000	304.00000000	153.00000000	210.00000000	110.00000000	113.00000000	58.00000000	87.00000000	178.00000000	54.00000000	113.00000000	161.00000000	118.00000000	173.00000000	95.00000000	150.00000000	105.00000000	112.00000000	71.00000000	249.00000000
1550.00000000	76.00000000	56.00000000	64.00000000	109.00000000	66.00000000	53.00000000	104.00000000	95.00000000	98.00000000	131.00000000	51.00000000	85.00000000	0.00000000	123.00000000	101.00000000	129.00000000	87.00000000	69.00000000	76.00000000	80.00000000	99.00000000	122.00000000	111.00000000	185.00000000	211.00000000	92.00000000	71.00000000	83.00000000	53.00000000	95.00000000	91.00000000	60.00000000	56.00000000	119.00000000	86.00000000	124.00000000	228.00000000	132.00000000	61.00000000	132.00000000	63.00000000	155.00000000
931.00000000	114.00000000	112.00000000	150.00000000	159.00000000	104.00000000	55.00000000	118.00000000	148.00000000	191.00000000	205.00000000	36.00000000	144.00000000	123.00000000	0.00000000	189.00000000	203.00000000	162.00000000	176.00000000	133.00000000	134.00000000	167.00000000	162.00000000	112.00000000	253.00000000	186.00000000	173.00000000	95.00000000	137.00000000	56.00000000	133.00000000	111.00000000	126.00000000	150.00000000	146.00000000	103.00000000	195.00000000	181.00000000	137.00000000	127.00000000	147.00000000	104.00000000	164.00000000
1215.00000000	131.00000000	143.00000000	218.00000000	214.00000000	142.00000000	64.00000000	173.00000000	227.00000000	253.00000000	169.00000000	36.00000000	152.00000000	101.00000000	189.00000000	0.00000000	260.00000000	172.00000000	185.00000000	133.00000000	144.00000000	158.00000000	180.00000000	113.00000000	203.00000000	218.00000000	201.00000000	124.00000000	194.00000000	59.00000000	125.00000000	189.00000000	86.00000000	125.00000000	153.00000000	111.00000000	180.00000000	230.00000000	149.00000000	113.00000000	172.00000000	78.00000000	198.00000000
779.00000000	72.00000000	123.00000000	96.00000000	125.00000000	72.00000000	63.00000000	102.00000000	165.00000000	190.00000000	355.00000000	81.00000000	256.00000000	129.00000000	203.00000000	260.00000000	0.00000000	288.00000000	202.00000000	245.00000000	232.00000000	310.00000000	182.00000000	60.00000000	139.00000000	236.00000000	166.00000000	57.00000000	189.00000000	69.00000000	221.00000000	138.00000000	203.00000000	185.00000000	115.00000000	123.00000000	246.00000000	341.00000000	200.00000000	136.00000000	254.00000000	116.00000000	76.00000000
1135.00000000	83.00000000	126.00000000	256.00000000	240.00000000	173.00000000	63.00000000	156.00000000	143.00000000	253.00000000	181.00000000	28.00000000	132.00000000	87.00000000	162.00000000	172.00000000	288.00000000	0.00000000	183.00000000	94.00000000	126.00000000	163.00000000	239.00000000	127.00000000	285.00000000	248.00000000	222.00000000	102.00000000	148.00000000	48.00000000	106.00000000	161.00000000	70.00000000	129.00000000	204.00000000	107.00000000	171.00000000	303.00000000	152.00000000	107.00000000	145.00000000	65.00000000	212.00000000
1985.00000000	115.00000000	79.00000000	105.00000000	114.00000000	62.00000000	36.00000000	158.00000000	100.00000000	181.00000000	249.00000000	38.00000000	172.00000000	69.00000000	176.00000000	185.00000000	202.00000000	183.00000000	0.00000000	124.00000000	128.00000000	185.00000000	128.00000000	49.00000000	137.00000000	321.00000000	141.00000000	71.00000000	81.00000000	37.00000000	126.00000000	94.00000000	108.00000000	88.00000000	104.00000000	89.00000000	242.00000000	509.00000000	197.00000000	107.00000000	196.00000000	96.00000000	180.00000000
2080.00000000	70.00000000	84.00000000	123.00000000	152.00000000	94.00000000	79.00000000	203.00000000	128.00000000	184.00000000	157.00000000	32.00000000	101.00000000	76.00000000	133.00000000	133.00000000	245.00000000	94.00000000	124.00000000	0.00000000	84.00000000	148.00000000	181.00000000	106.00000000	222.00000000	302.00000000	153.00000000	102.00000000	93.00000000	58.00000000	100.00000000	118.00000000	69.00000000	64.00000000	139.00000000	86.00000000	186.00000000	294.00000000	192.00000000	115.00000000	105.00000000	74.00000000	203.00000000
880.00000000	105.00000000	113.00000000	153.00000000	179.00000000	116.00000000	63.00000000	140.00000000	147.00000000	179.00000000	145.00000000	33.00000000	113.00000000	80.00000000	134.00000000	144.00000000	232.00000000	126.00000000	128.00000000	84.00000000	0.00000000	151.00000000	147.00000000	112.00000000	221.00000000	163.00000000	150.00000000	93.00000000	149.00000000	43.00000000	105.00000000	120.00000000	104.00000000	97.00000000	134.00000000	82.00000000	173.00000000	205.00000000	142.00000000	69.00000000	134.00000000	76.00000000	164.00000000
1377.00000000	184.00000000	166.00000000	250.00000000	289.00000000	201.00000000	64.00000000	187.00000000	263.00000000	290.00000000	152.00000000	40.00000000	117.00000000	99.00000000	167.00000000	158.00000000	310.00000000	163.00000000	185.00000000	148.00000000	151.00000000	0.00000000	283.00000000	169.00000000	329.00000000	242.00000000	257.00000000	144.00000000	146.00000000	93.00000000	94.00000000	247.00000000	77.00000000	136.00000000	204.00000000	122.00000000	222.00000000	127.00000000	201.00000000	128.00000000	107.00000000	69.00000000	302.00000000
970.00000000	73.00000000	123.00000000	82.00000000	124.00000000	73.00000000	63.00000000	120.00000000	135.00000000	135.00000000	262.00000000	61.00000000	200.00000000	122.00000000	162.00000000	180.00000000	182.00000000	239.00000000	128.00000000	181.00000000	147.00000000	283.00000000	0.00000000	70.00000000	137.00000000	196.00000000	148.00000000	97.00000000	194.00000000	60.00000000	152.00000000	117.00000000	126.00000000	111.00000000	98.00000000	115.00000000	196.00000000	269.00000000	185.00000000	91.00000000	263.00000000	135.00000000	126.00000000
1549.00000000	36.00000000	48.00000000	24.00000000	34.00000000	43.00000000	147.00000000	127.00000000	23.00000000	103.00000000	218.00000000	108.00000000	127.00000000	111.00000000	112.00000000	113.00000000	60.00000000	127.00000000	49.00000000	106.00000000	112.00000000	169.00000000	70.00000000	0.00000000	104.00000000	169.00000000	61.00000000	57.00000000	66.00000000	58.00000000	165.00000000	38.00000000	115.00000000	47.00000000	46.00000000	89.00000000	160.00000000	237.00000000	164.00000000	89.00000000	211.00000000	110.00000000	89.00000000
1547.00000000	121.00000000	102.00000000	58.00000000	89.00000000	88.00000000	176.00000000	154.00000000	93.00000000	113.00000000	333.00000000	191.00000000	304.00000000	185.00000000	253.00000000	203.00000000	139.00000000	285.00000000	137.00000000	222.00000000	221.00000000	329.00000000	137.00000000	104.00000000	0.00000000	241.00000000	141.00000000	97.00000000	180.00000000	169.00000000	348.00000000	91.00000000	239.00000000	132.00000000	127.00000000	214.00000000	252.00000000	547.00000000	246.00000000	151.00000000	335.00000000	263.00000000	178.00000000
1091.00000000	99.00000000	164.00000000	173.00000000	268.00000000	132.00000000	91.00000000	134.00000000	328.00000000	219.00000000	255.00000000	69.00000000	153.00000000	211.00000000	186.00000000	218.00000000	236.00000000	248.00000000	321.00000000	302.00000000	163.00000000	242.00000000	196.00000000	169.00000000	241.00000000	0.00000000	217.00000000	74.00000000	306.00000000	102.00000000	177.00000000	309.00000000	237.00000000	225.00000000	159.00000000	116.00000000	169.00000000	183.00000000	175.00000000	106.00000000	216.00000000	134.00000000	213.00000000
1114.00000000	73.00000000	93.00000000	86.00000000	133.00000000	112.00000000	97.00000000	157.00000000	103.00000000	142.00000000	253.00000000	72.00000000	210.00000000	92.00000000	173.00000000	201.00000000	166.00000000	222.00000000	141.00000000	153.00000000	150.00000000	257.00000000	148.00000000	61.00000000	141.00000000	217.00000000	0.00000000	85.00000000	150.00000000	78.00000000	199.00000000	95.00000000	137.00000000	109.00000000	140.00000000	130.00000000	234.00000000	340.00000000	233.00000000	133.00000000	256.00000000	126.00000000	162.00000000
1663.00000000	42.00000000	82.00000000	30.00000000	47.00000000	52.00000000	69.00000000	74.00000000	79.00000000	66.00000000	173.00000000	79.00000000	110.00000000	71.00000000	95.00000000	124.00000000	57.00000000	102.00000000	71.00000000	102.00000000	93.00000000	144.00000000	97.00000000	57.00000000	97.00000000	74.00000000	85.00000000	0.00000000	85.00000000	63.00000000	108.00000000	110.00000000	129.00000000	75.00000000	77.00000000	71.00000000	90.00000000	180.00000000	140.00000000	99.00000000	169.00000000	90.00000000	113.00000000
1973.00000000	117.00000000	92.00000000	127.00000000	134.00000000	78.00000000	42.00000000	164.00000000	155.00000000	199.00000000	180.00000000	43.00000000	113.00000000	83.00000000	137.00000000	194.00000000	189.00000000	148.00000000	81.00000000	93.00000000	149.00000000	146.00000000	194.00000000	66.00000000	180.00000000	306.00000000	150.00000000	85.00000000	0.00000000	56.00000000	97.00000000	133.00000000	92.00000000	81.00000000	127.00000000	92.00000000	190.00000000	441.00000000	199.00000000	77.00000000	140.00000000	83.00000000	189.00000000
406.00000000	59.00000000	41.00000000	20.00000000	74.00000000	52.00000000	48.00000000	88.00000000	54.00000000	81.00000000	60.00000000	39.00000000	58.00000000	53.00000000	56.00000000	59.00000000	69.00000000	48.00000000	37.00000000	58.00000000	43.00000000	93.00000000	60.00000000	58.00000000	169.00000000	102.00000000	78.00000000	63.00000000	56.00000000	0.00000000	52.00000000	100.00000000	70.00000000	35.00000000	64.00000000	57.00000000	85.00000000	104.00000000	84.00000000	38.00000000	51.00000000	28.00000000	91.00000000
1379.00000000	151.00000000	124.00000000	177.00000000	206.00000000	131.00000000	49.00000000	140.00000000	205.00000000	198.00000000	111.00000000	23.00000000	87.00000000	95.00000000	133.00000000	125.00000000	221.00000000	106.00000000	126.00000000	100.00000000	105.00000000	94.00000000	152.00000000	165.00000000	348.00000000	177.00000000	199.00000000	108.00000000	97.00000000	52.00000000	0.00000000	224.00000000	77.00000000	108.00000000	151.00000000	93.00000000	156.00000000	205.00000000	150.00000000	102.00000000	117.00000000	56.00000000	244.00000000
2470.00000000	69.00000000	49.00000000	59.00000000	52.00000000	71.00000000	140.00000000	193.00000000	50.00000000	90.00000000	237.00000000	147.00000000	178.00000000	91.00000000	111.00000000	189.00000000	138.00000000	161.00000000	94.00000000	118.00000000	120.00000000	247.00000000	117.00000000	38.00000000	91.00000000	309.00000000	95.00000000	110.00000000	133.00000000	100.00000000	224.00000000	0.00000000	166.00000000	94.00000000	115.00000000	138.00000000	217.00000000	502.00000000	225.00000000	150.00000000	207.00000000	154.00000000	169.00000000
2021.00000000	100.00000000	77.00000000	108.00000000	138.00000000	97.00000000	103.00000000	151.00000000	107.00000000	144.00000000	99.00000000	49.00000000	54.00000000	60.00000000	126.00000000	86.00000000	203.00000000	70.00000000	108.00000000	69.00000000	104.00000000	77.00000000	126.00000000	115.00000000	239.00000000	237.00000000	137.00000000	129.00000000	92.00000000	70.00000000	77.00000000	166.00000000	0.00000000	50.00000000	148.00000000	87.00000000	144.00000000	235.00000000	134.00000000	112.00000000	80.00000000	84.00000000	178.00000000
1334.00000000	86.00000000	89.00000000	129.00000000	132.00000000	81.00000000	52.00000000	144.00000000	118.00000000	163.00000000	146.00000000	21.00000000	113.00000000	56.00000000	150.00000000	125.00000000	185.00000000	129.00000000	88.00000000	64.00000000	97.00000000	136.00000000	111.00000000	47.00000000	132.00000000	225.00000000	109.00000000	75.00000000	81.00000000	35.00000000	108.00000000	94.00000000	50.00000000	0.00000000	112.00000000	73.00000000	160.00000000	246.00000000	162.00000000	88.00000000	143.00000000	60.00000000	156.00000000
729.00000000	85.00000000	67.00000000	66.00000000	103.00000000	71.00000000	34.00000000	99.00000000	150.00000000	174.00000000	258.00000000	58.00000000	161.00000000	119.00000000	146.00000000	153.00000000	115.00000000	204.00000000	104.00000000	139.00000000	134.00000000	204.00000000	98.00000000	46.00000000	127.00000000	159.00000000	140.00000000	77.00000000	127.00000000	64.00000000	151.00000000	115.00000000	148.00000000	112.00000000	0.00000000	93.00000000	145.00000000	266.00000000	173.00000000	78.00000000	186.00000000	81.00000000	113.00000000
530.00000000	116.00000000	98.00000000	81.00000000	133.00000000	72.00000000	51.00000000	73.00000000	107.00000000	153.00000000	121.00000000	48.00000000	118.00000000	86.00000000	103.00000000	111.00000000	123.00000000	107.00000000	89.00000000	86.00000000	82.00000000	122.00000000	115.00000000	89.00000000	214.00000000	116.00000000	130.00000000	71.00000000	92.00000000	57.00000000	93.00000000	138.00000000	87.00000000	73.00000000	93.00000000	0.00000000	107.00000000	133.00000000	100.00000000	82.00000000	97.00000000	67.00000000	123.00000000
606.00000000	150.00000000	149.00000000	162.00000000	212.00000000	167.00000000	85.00000000	119.00000000	230.00000000	238.00000000	182.00000000	53.00000000	173.00000000	124.00000000	195.00000000	180.00000000	246.00000000	171.00000000	242.00000000	186.00000000	173.00000000	222.00000000	196.00000000	160.00000000	252.00000000	169.00000000	234.00000000	90.00000000	190.00000000	85.00000000	156.00000000	217.00000000	144.00000000	160.00000000	145.00000000	107.00000000	0.00000000	170.00000000	131.00000000	105.00000000	131.00000000	90.00000000	201.00000000
1149.00000000	174.00000000	278.00000000	301.00000000	465.00000000	230.00000000	86.00000000	198.00000000	532.00000000	357.00000000	190.00000000	89.00000000	95.00000000	228.00000000	181.00000000	230.00000000	341.00000000	303.00000000	509.00000000	294.00000000	205.00000000	127.00000000	269.00000000	237.00000000	547.00000000	183.00000000	340.00000000	180.00000000	441.00000000	104.00000000	205.00000000	502.00000000	235.00000000	246.00000000	266.00000000	133.00000000	170.00000000	0.00000000	187.00000000	115.00000000	147.00000000	162.00000000	362.00000000
613.00000000	132.00000000	156.00000000	152.00000000	257.00000000	153.00000000	81.00000000	115.00000000	203.00000000	282.00000000	165.00000000	52.00000000	150.00000000	132.00000000	137.00000000	149.00000000	200.00000000	152.00000000	197.00000000	192.00000000	142.00000000	201.00000000	185.00000000	164.00000000	246.00000000	175.00000000	233.00000000	140.00000000	199.00000000	84.00000000	150.00000000	225.00000000	134.00000000	162.00000000	173.00000000	100.00000000	131.00000000	187.00000000	0.00000000	99.00000000	120.00000000	92.00000000	193.00000000
509.00000000	119.00000000	78.00000000	86.00000000	126.00000000	91.00000000	77.00000000	66.00000000	102.00000000	133.00000000	129.00000000	49.00000000	105.00000000	61.00000000	127.00000000	113.00000000	136.00000000	107.00000000	107.00000000	115.00000000	69.00000000	128.00000000	91.00000000	89.00000000	151.00000000	106.00000000	133.00000000	99.00000000	77.00000000	38.00000000	102.00000000	150.00000000	112.00000000	88.00000000	78.00000000	82.00000000	105.00000000	115.00000000	99.00000000	0.00000000	89.00000000	67.00000000	123.00000000
599.00000000	183.00000000	134.00000000	264.00000000	294.00000000	175.00000000	70.00000000	151.00000000	263.00000000	331.00000000	106.00000000	23.00000000	112.00000000	132.00000000	147.00000000	172.00000000	254.00000000	145.00000000	196.00000000	105.00000000	134.00000000	107.00000000	263.00000000	211.00000000	335.00000000	216.00000000	256.00000000	169.00000000	140.00000000	51.00000000	117.00000000	207.00000000	80.00000000	143.00000000	186.00000000	97.00000000	131.00000000	147.00000000	120.00000000	89.00000000	0.00000000	52.00000000	286.00000000
520.00000000	129.00000000	84.00000000	96.00000000	145.00000000	110.00000000	47.00000000	91.00000000	135.00000000	178.00000000	91.00000000	27.00000000	71.00000000	63.00000000	104.00000000	78.00000000	116.00000000	65.00000000	96.00000000	74.00000000	76.00000000	69.00000000	135.00000000	110.00000000	263.00000000	134.00000000	126.00000000	90.00000000	83.00000000	28.00000000	56.00000000	154.00000000	84.00000000	60.00000000	81.00000000	67.00000000	90.00000000	162.00000000	92.00000000	67.00000000	52.00000000	0.00000000	144.00000000
520.00000000	205.00000000	129.00000000	51.00000000	104.00000000	104.00000000	114.00000000	121.00000000	157.00000000	118.00000000	281.00000000	110.00000000	249.00000000	155.00000000	164.00000000	198.00000000	76.00000000	212.00000000	180.00000000	203.00000000	164.00000000	302.00000000	126.00000000	89.00000000	178.00000000	213.00000000	162.00000000	113.00000000	189.00000000	91.00000000	244.00000000	169.00000000	178.00000000	156.00000000	113.00000000	123.00000000	201.00000000	362.00000000	193.00000000	123.00000000	286.00000000	144.00000000	0.00000000
