1.fsa	44.fsa	48.fsa	63.fsa
0.00000000	565.00000000	501.00000000	757.00000000
565.00000000	0.00000000	535.00000000	1886.00000000
501.00000000	535.00000000	0.00000000	1519.00000000
757.00000000	1886.00000000	1519.00000000	0.00000000
