<?xml version='1.0' encoding='UTF-8' ?>
<svg xmlns='http://www.w3.org/2000/svg' xmlns:xlink='http://www.w3.org/1999/xlink' viewBox='0 0 1440.00 792.00'>
<defs>
  <style type='text/css'><![CDATA[
    line, polyline, polygon, path, rect, circle {
      fill: none;
      stroke: #000000;
      stroke-linecap: round;
      stroke-linejoin: round;
      stroke-miterlimit: 10.00;
    }
  ]]></style>
</defs>
<rect width='100%' height='100%' style='stroke: none; fill: #FFFFFF;'/>
<rect x='0.00' y='0.00' width='1440.00' height='792.00' style='stroke-width: 1.07; stroke: #FFFFFF; fill: #FFFFFF;' />
<defs>
  <clipPath id='cpMTQ0LjQ3fDEzODMuMzF8NzMyLjU3fDcyLjMz'>
    <rect x='144.47' y='72.33' width='1238.84' height='660.24' />
  </clipPath>
</defs>
<rect x='144.47' y='72.33' width='1238.84' height='660.24' style='stroke-width: 1.07; stroke: #FFFFFF; fill: #FFFFFF;' clip-path='url(#cpMTQ0LjQ3fDEzODMuMzF8NzMyLjU3fDcyLjMz)' />
<line x1='1104.05' y1='202.38' x2='1187.33' y2='202.38' style='stroke-width: 1.07;' clip-path='url(#cpMTQ0LjQ3fDEzODMuMzF8NzMyLjU3fDcyLjMz)' />
<line x1='693.02' y1='302.41' x2='693.02' y2='302.41' style='stroke-width: 1.07;' clip-path='url(#cpMTQ0LjQ3fDEzODMuMzF8NzMyLjU3fDcyLjMz)' />
<line x1='1104.05' y1='102.34' x2='1321.40' y2='102.34' style='stroke-width: 1.07;' clip-path='url(#cpMTQ0LjQ3fDEzODMuMzF8NzMyLjU3fDcyLjMz)' />
<line x1='388.29' y1='502.48' x2='1321.40' y2='502.48' style='stroke-width: 1.07;' clip-path='url(#cpMTQ0LjQ3fDEzODMuMzF8NzMyLjU3fDcyLjMz)' />
<line x1='388.29' y1='402.45' x2='388.29' y2='402.45' style='stroke-width: 1.07;' clip-path='url(#cpMTQ0LjQ3fDEzODMuMzF8NzMyLjU3fDcyLjMz)' />
<line x1='201.36' y1='339.93' x2='201.36' y2='339.93' style='stroke-width: 1.07;' clip-path='url(#cpMTQ0LjQ3fDEzODMuMzF8NzMyLjU3fDcyLjMz)' />
<line x1='201.36' y1='227.39' x2='693.02' y2='227.39' style='stroke-width: 1.07;' clip-path='url(#cpMTQ0LjQ3fDEzODMuMzF8NzMyLjU3fDcyLjMz)' />
<line x1='693.02' y1='152.36' x2='1104.05' y2='152.36' style='stroke-width: 1.07;' clip-path='url(#cpMTQ0LjQ3fDEzODMuMzF8NzMyLjU3fDcyLjMz)' />
<line x1='201.36' y1='452.47' x2='388.29' y2='452.47' style='stroke-width: 1.07;' clip-path='url(#cpMTQ0LjQ3fDEzODMuMzF8NzMyLjU3fDcyLjMz)' />
<line x1='1104.05' y1='152.36' x2='1104.05' y2='202.38' style='stroke-width: 1.07;' clip-path='url(#cpMTQ0LjQ3fDEzODMuMzF8NzMyLjU3fDcyLjMz)' />
<line x1='693.02' y1='227.39' x2='693.02' y2='302.41' style='stroke-width: 1.07;' clip-path='url(#cpMTQ0LjQ3fDEzODMuMzF8NzMyLjU3fDcyLjMz)' />
<line x1='1104.05' y1='152.36' x2='1104.05' y2='102.34' style='stroke-width: 1.07;' clip-path='url(#cpMTQ0LjQ3fDEzODMuMzF8NzMyLjU3fDcyLjMz)' />
<line x1='388.29' y1='452.47' x2='388.29' y2='502.48' style='stroke-width: 1.07;' clip-path='url(#cpMTQ0LjQ3fDEzODMuMzF8NzMyLjU3fDcyLjMz)' />
<line x1='388.29' y1='452.47' x2='388.29' y2='402.45' style='stroke-width: 1.07;' clip-path='url(#cpMTQ0LjQ3fDEzODMuMzF8NzMyLjU3fDcyLjMz)' />
<line x1='201.36' y1='339.93' x2='201.36' y2='339.93' style='stroke-width: 1.07;' clip-path='url(#cpMTQ0LjQ3fDEzODMuMzF8NzMyLjU3fDcyLjMz)' />
<line x1='201.36' y1='339.93' x2='201.36' y2='227.39' style='stroke-width: 1.07;' clip-path='url(#cpMTQ0LjQ3fDEzODMuMzF8NzMyLjU3fDcyLjMz)' />
<line x1='693.02' y1='227.39' x2='693.02' y2='152.36' style='stroke-width: 1.07;' clip-path='url(#cpMTQ0LjQ3fDEzODMuMzF8NzMyLjU3fDcyLjMz)' />
<line x1='201.36' y1='339.93' x2='201.36' y2='452.47' style='stroke-width: 1.07;' clip-path='url(#cpMTQ0LjQ3fDEzODMuMzF8NzMyLjU3fDcyLjMz)' />
<line x1='200.78' y1='702.56' x2='312.21' y2='702.56' style='stroke-width: 1.07; stroke-linecap: butt;' clip-path='url(#cpMTQ0LjQ3fDEzODMuMzF8NzMyLjU3fDcyLjMz)' />
<g clip-path='url(#cpMTQ0LjQ3fDEzODMuMzF8NzMyLjU3fDcyLjMz)'><text x='247.32' y='656.32' style='font-size: 11.04px; font-family: Liberation Sans;' textLength='18.35px' lengthAdjust='spacingAndGlyphs'>192</text></g>
<g clip-path='url(#cpMTQ0LjQ3fDEzODMuMzF8NzMyLjU3fDcyLjMz)'><text x='698.62' y='306.19' style='font-size: 11.04px; fill: #E69F00; font-family: Liberation Sans;' textLength='39.74px' lengthAdjust='spacingAndGlyphs'>48 VNM</text></g>
<g clip-path='url(#cpMTQ0LjQ3fDEzODMuMzF8NzMyLjU3fDcyLjMz)'><text x='393.89' y='406.23' style='font-size: 11.04px; fill: #F0E442; font-family: Liberation Sans;' textLength='37.29px' lengthAdjust='spacingAndGlyphs'>63 MLT</text></g>
<g clip-path='url(#cpMTQ0LjQ3fDEzODMuMzF8NzMyLjU3fDcyLjMz)'><text x='1192.93' y='206.16' style='font-size: 11.04px; fill: #CC79A7; font-family: Liberation Sans;' textLength='39.12px' lengthAdjust='spacingAndGlyphs'>44 TGO</text></g>
<g clip-path='url(#cpMTQ0LjQ3fDEzODMuMzF8NzMyLjU3fDcyLjMz)'><text x='1327.00' y='106.12' style='font-size: 11.04px; fill: #CC79A7; font-family: Liberation Sans;' textLength='31.78px' lengthAdjust='spacingAndGlyphs'>1 TCD</text></g>
<g clip-path='url(#cpMTQ0LjQ3fDEzODMuMzF8NzMyLjU3fDcyLjMz)'><text x='1327.00' y='506.27' style='font-size: 11.04px; fill: #CC79A7; font-family: Liberation Sans;' textLength='44.63px' lengthAdjust='spacingAndGlyphs'>49b ZMB</text></g>
<defs>
  <clipPath id='cpMC4wMHwxNDQwLjAwfDc5Mi4wMHwwLjAw'>
    <rect x='0.00' y='0.00' width='1440.00' height='792.00' />
  </clipPath>
</defs>
<rect x='76.31' y='38.58' width='136.32' height='67.50' style='stroke-width: 1.07; stroke: none; fill: #FFFFFF;' clip-path='url(#cpMC4wMHwxNDQwLjAwfDc5Mi4wMHwwLjAw)' />
<g clip-path='url(#cpMC4wMHwxNDQwLjAwfDc5Mi4wMHwwLjAw)'><text x='87.56' y='60.99' style='font-size: 11.04px; fill: #E69F00; font-family: Liberation Sans;' textLength='6.12px' lengthAdjust='spacingAndGlyphs'>a</text></g>
<g clip-path='url(#cpMC4wMHwxNDQwLjAwfDc5Mi4wMHwwLjAw)'><text x='87.56' y='78.27' style='font-size: 11.04px; fill: #F0E442; font-family: Liberation Sans;' textLength='6.12px' lengthAdjust='spacingAndGlyphs'>a</text></g>
<g clip-path='url(#cpMC4wMHwxNDQwLjAwfDc5Mi4wMHwwLjAw)'><text x='87.56' y='95.55' style='font-size: 11.04px; fill: #CC79A7; font-family: Liberation Sans;' textLength='6.12px' lengthAdjust='spacingAndGlyphs'>a</text></g>
<g clip-path='url(#cpMC4wMHwxNDQwLjAwfDc5Mi4wMHwwLjAw)'><text x='101.42' y='60.30' style='font-size: 8.80px; font-family: Liberation Sans;' textLength='75.53px' lengthAdjust='spacingAndGlyphs'>East Asia &amp; Pacific</text></g>
<g clip-path='url(#cpMC4wMHwxNDQwLjAwfDc5Mi4wMHwwLjAw)'><text x='101.42' y='77.58' style='font-size: 8.80px; font-family: Liberation Sans;' textLength='105.54px' lengthAdjust='spacingAndGlyphs'>Middle East &amp; North Africa</text></g>
<g clip-path='url(#cpMC4wMHwxNDQwLjAwfDc5Mi4wMHwwLjAw)'><text x='101.42' y='94.86' style='font-size: 8.80px; font-family: Liberation Sans;' textLength='78.54px' lengthAdjust='spacingAndGlyphs'>Sub-Saharan Africa</text></g>
<g clip-path='url(#cpMC4wMHwxNDQwLjAwfDc5Mi4wMHwwLjAw)'><text x='664.90' y='65.63' style='font-size: 13.20px; font-family: Liberation Sans;' textLength='197.97px' lengthAdjust='spacingAndGlyphs'> Aeromonas veronii strain AVNIH1</text></g>
</svg>
