<?xml version='1.0' encoding='UTF-8' ?>
<svg xmlns='http://www.w3.org/2000/svg' xmlns:xlink='http://www.w3.org/1999/xlink' viewBox='0 0 1440.00 792.00'>
<defs>
  <style type='text/css'><![CDATA[
    line, polyline, polygon, path, rect, circle {
      fill: none;
      stroke: #000000;
      stroke-linecap: round;
      stroke-linejoin: round;
      stroke-miterlimit: 10.00;
    }
  ]]></style>
</defs>
<rect width='100%' height='100%' style='stroke: none; fill: #FFFFFF;'/>
<rect x='0.00' y='0.00' width='1440.00' height='792.00' style='stroke-width: 1.07; stroke: #FFFFFF; fill: #FFFFFF;' />
<defs>
  <clipPath id='cpMTQ0LjQ3fDEzODMuMzF8NzMyLjU3fDc0LjY5'>
    <rect x='144.47' y='74.69' width='1238.84' height='657.88' />
  </clipPath>
</defs>
<rect x='144.47' y='74.69' width='1238.84' height='657.88' style='stroke-width: 1.07; stroke: #FFFFFF; fill: #FFFFFF;' clip-path='url(#cpMTQ0LjQ3fDEzODMuMzF8NzMyLjU3fDc0LjY5)' />
<line x1='418.46' y1='503.31' x2='418.46' y2='503.31' style='stroke-width: 1.07;' clip-path='url(#cpMTQ0LjQ3fDEzODMuMzF8NzMyLjU3fDc0LjY5)' />
<line x1='418.46' y1='403.63' x2='1321.39' y2='403.63' style='stroke-width: 1.07;' clip-path='url(#cpMTQ0LjQ3fDEzODMuMzF8NzMyLjU3fDc0LjY5)' />
<line x1='579.89' y1='303.95' x2='579.89' y2='303.95' style='stroke-width: 1.07;' clip-path='url(#cpMTQ0LjQ3fDEzODMuMzF8NzMyLjU3fDc0LjY5)' />
<line x1='1171.71' y1='204.27' x2='1186.56' y2='204.27' style='stroke-width: 1.07;' clip-path='url(#cpMTQ0LjQ3fDEzODMuMzF8NzMyLjU3fDc0LjY5)' />
<line x1='1171.71' y1='104.59' x2='1321.39' y2='104.59' style='stroke-width: 1.07;' clip-path='url(#cpMTQ0LjQ3fDEzODMuMzF8NzMyLjU3fDc0LjY5)' />
<line x1='200.96' y1='341.33' x2='200.96' y2='341.33' style='stroke-width: 1.07;' clip-path='url(#cpMTQ0LjQ3fDEzODMuMzF8NzMyLjU3fDc0LjY5)' />
<line x1='200.96' y1='453.47' x2='418.46' y2='453.47' style='stroke-width: 1.07;' clip-path='url(#cpMTQ0LjQ3fDEzODMuMzF8NzMyLjU3fDc0LjY5)' />
<line x1='200.96' y1='229.19' x2='579.89' y2='229.19' style='stroke-width: 1.07;' clip-path='url(#cpMTQ0LjQ3fDEzODMuMzF8NzMyLjU3fDc0LjY5)' />
<line x1='579.89' y1='154.43' x2='1171.71' y2='154.43' style='stroke-width: 1.07;' clip-path='url(#cpMTQ0LjQ3fDEzODMuMzF8NzMyLjU3fDc0LjY5)' />
<line x1='418.46' y1='453.47' x2='418.46' y2='503.31' style='stroke-width: 1.07;' clip-path='url(#cpMTQ0LjQ3fDEzODMuMzF8NzMyLjU3fDc0LjY5)' />
<line x1='418.46' y1='453.47' x2='418.46' y2='403.63' style='stroke-width: 1.07;' clip-path='url(#cpMTQ0LjQ3fDEzODMuMzF8NzMyLjU3fDc0LjY5)' />
<line x1='579.89' y1='229.19' x2='579.89' y2='303.95' style='stroke-width: 1.07;' clip-path='url(#cpMTQ0LjQ3fDEzODMuMzF8NzMyLjU3fDc0LjY5)' />
<line x1='1171.71' y1='154.43' x2='1171.71' y2='204.27' style='stroke-width: 1.07;' clip-path='url(#cpMTQ0LjQ3fDEzODMuMzF8NzMyLjU3fDc0LjY5)' />
<line x1='1171.71' y1='154.43' x2='1171.71' y2='104.59' style='stroke-width: 1.07;' clip-path='url(#cpMTQ0LjQ3fDEzODMuMzF8NzMyLjU3fDc0LjY5)' />
<line x1='200.96' y1='341.33' x2='200.96' y2='341.33' style='stroke-width: 1.07;' clip-path='url(#cpMTQ0LjQ3fDEzODMuMzF8NzMyLjU3fDc0LjY5)' />
<line x1='200.96' y1='341.33' x2='200.96' y2='453.47' style='stroke-width: 1.07;' clip-path='url(#cpMTQ0LjQ3fDEzODMuMzF8NzMyLjU3fDc0LjY5)' />
<line x1='200.96' y1='341.33' x2='200.96' y2='229.19' style='stroke-width: 1.07;' clip-path='url(#cpMTQ0LjQ3fDEzODMuMzF8NzMyLjU3fDc0LjY5)' />
<line x1='579.89' y1='229.19' x2='579.89' y2='154.43' style='stroke-width: 1.07;' clip-path='url(#cpMTQ0LjQ3fDEzODMuMzF8NzMyLjU3fDc0LjY5)' />
<line x1='200.78' y1='702.66' x2='312.79' y2='702.66' style='stroke-width: 1.07; stroke-linecap: butt;' clip-path='url(#cpMTQ0LjQ3fDEzODMuMzF8NzMyLjU3fDc0LjY5)' />
<g clip-path='url(#cpMTQ0LjQ3fDEzODMuMzF8NzMyLjU3fDc0LjY5)'><text x='247.61' y='656.61' style='font-size: 11.04px; font-family: Liberation Sans;' textLength='18.35px' lengthAdjust='spacingAndGlyphs'>644</text></g>
<g clip-path='url(#cpMTQ0LjQ3fDEzODMuMzF8NzMyLjU3fDc0LjY5)'><text x='424.06' y='507.09' style='font-size: 11.04px; fill: #E69F00; font-family: Liberation Sans;' textLength='36.07px' lengthAdjust='spacingAndGlyphs'>56 NZL</text></g>
<g clip-path='url(#cpMTQ0LjQ3fDEzODMuMzF8NzMyLjU3fDc0LjY5)'><text x='585.49' y='307.73' style='font-size: 11.04px; fill: #56B4E9; font-family: Liberation Sans;' textLength='37.90px' lengthAdjust='spacingAndGlyphs'>46 TUR</text></g>
<g clip-path='url(#cpMTQ0LjQ3fDEzODMuMzF8NzMyLjU3fDc0LjY5)'><text x='1192.17' y='208.05' style='font-size: 11.04px; fill: #56B4E9; font-family: Liberation Sans;' textLength='37.91px' lengthAdjust='spacingAndGlyphs'>38 SVN</text></g>
<g clip-path='url(#cpMTQ0LjQ3fDEzODMuMzF8NzMyLjU3fDc0LjY5)'><text x='1327.00' y='108.37' style='font-size: 11.04px; fill: #56B4E9; font-family: Liberation Sans;' textLength='54.40px' lengthAdjust='spacingAndGlyphs'>71RD DNK</text></g>
<g clip-path='url(#cpMTQ0LjQ3fDEzODMuMzF8NzMyLjU3fDc0LjY5)'><text x='1327.00' y='407.41' style='font-size: 11.04px; fill: #CC79A7; font-family: Liberation Sans;' textLength='40.35px' lengthAdjust='spacingAndGlyphs'>10 GMB</text></g>
<defs>
  <clipPath id='cpMC4wMHwxNDQwLjAwfDc5Mi4wMHwwLjAw'>
    <rect x='0.00' y='0.00' width='1440.00' height='792.00' />
  </clipPath>
</defs>
<rect x='84.56' y='40.94' width='119.82' height='67.50' style='stroke-width: 1.07; stroke: none; fill: #FFFFFF;' clip-path='url(#cpMC4wMHwxNDQwLjAwfDc5Mi4wMHwwLjAw)' />
<g clip-path='url(#cpMC4wMHwxNDQwLjAwfDc5Mi4wMHwwLjAw)'><text x='95.81' y='63.35' style='font-size: 11.04px; fill: #E69F00; font-family: Liberation Sans;' textLength='6.12px' lengthAdjust='spacingAndGlyphs'>a</text></g>
<g clip-path='url(#cpMC4wMHwxNDQwLjAwfDc5Mi4wMHwwLjAw)'><text x='95.81' y='80.63' style='font-size: 11.04px; fill: #56B4E9; font-family: Liberation Sans;' textLength='6.12px' lengthAdjust='spacingAndGlyphs'>a</text></g>
<g clip-path='url(#cpMC4wMHwxNDQwLjAwfDc5Mi4wMHwwLjAw)'><text x='95.81' y='97.91' style='font-size: 11.04px; fill: #CC79A7; font-family: Liberation Sans;' textLength='6.12px' lengthAdjust='spacingAndGlyphs'>a</text></g>
<g clip-path='url(#cpMC4wMHwxNDQwLjAwfDc5Mi4wMHwwLjAw)'><text x='109.67' y='62.66' style='font-size: 8.80px; font-family: Liberation Sans;' textLength='75.53px' lengthAdjust='spacingAndGlyphs'>East Asia &amp; Pacific</text></g>
<g clip-path='url(#cpMC4wMHwxNDQwLjAwfDc5Mi4wMHwwLjAw)'><text x='109.67' y='79.94' style='font-size: 8.80px; font-family: Liberation Sans;' textLength='89.05px' lengthAdjust='spacingAndGlyphs'>Europe &amp; Central Asia</text></g>
<g clip-path='url(#cpMC4wMHwxNDQwLjAwfDc5Mi4wMHwwLjAw)'><text x='109.67' y='97.22' style='font-size: 8.80px; font-family: Liberation Sans;' textLength='78.54px' lengthAdjust='spacingAndGlyphs'>Sub-Saharan Africa</text></g>
<g clip-path='url(#cpMC4wMHwxNDQwLjAwfDc5Mi4wMHwwLjAw)'><text x='703.20' y='65.63' style='font-size: 13.20px; font-family: Liberation Sans;' textLength='121.38px' lengthAdjust='spacingAndGlyphs'> Psychrobacter sp. G</text></g>
</svg>
