<?xml version='1.0' encoding='UTF-8' ?>
<svg xmlns='http://www.w3.org/2000/svg' xmlns:xlink='http://www.w3.org/1999/xlink' viewBox='0 0 1440.00 792.00'>
<defs>
  <style type='text/css'><![CDATA[
    line, polyline, polygon, path, rect, circle {
      fill: none;
      stroke: #000000;
      stroke-linecap: round;
      stroke-linejoin: round;
      stroke-miterlimit: 10.00;
    }
  ]]></style>
</defs>
<rect width='100%' height='100%' style='stroke: none; fill: #FFFFFF;'/>
<rect x='0.00' y='0.00' width='1440.00' height='792.00' style='stroke-width: 1.07; stroke: #FFFFFF; fill: #FFFFFF;' />
<defs>
  <clipPath id='cpMTQ0LjQ3fDEzODMuMzF8NzMyLjU3fDc0LjY5'>
    <rect x='144.47' y='74.69' width='1238.84' height='657.88' />
  </clipPath>
</defs>
<rect x='144.47' y='74.69' width='1238.84' height='657.88' style='stroke-width: 1.07; stroke: #FFFFFF; fill: #FFFFFF;' clip-path='url(#cpMTQ0LjQ3fDEzODMuMzF8NzMyLjU3fDc0LjY5)' />
<line x1='752.74' y1='518.64' x2='752.74' y2='518.64' style='stroke-width: 1.07;' clip-path='url(#cpMTQ0LjQ3fDEzODMuMzF8NzMyLjU3fDc0LjY5)' />
<line x1='752.74' y1='472.64' x2='1245.00' y2='472.64' style='stroke-width: 1.07;' clip-path='url(#cpMTQ0LjQ3fDEzODMuMzF8NzMyLjU3fDc0LjY5)' />
<line x1='476.53' y1='426.63' x2='904.43' y2='426.63' style='stroke-width: 1.07;' clip-path='url(#cpMTQ0LjQ3fDEzODMuMzF8NzMyLjU3fDc0LjY5)' />
<line x1='661.73' y1='380.63' x2='965.31' y2='380.63' style='stroke-width: 1.07;' clip-path='url(#cpMTQ0LjQ3fDEzODMuMzF8NzMyLjU3fDc0LjY5)' />
<line x1='978.51' y1='288.62' x2='1211.11' y2='288.62' style='stroke-width: 1.07;' clip-path='url(#cpMTQ0LjQ3fDEzODMuMzF8NzMyLjU3fDc0LjY5)' />
<line x1='1061.74' y1='242.61' x2='1290.11' y2='242.61' style='stroke-width: 1.07;' clip-path='url(#cpMTQ0LjQ3fDEzODMuMzF8NzMyLjU3fDc0LjY5)' />
<line x1='1082.17' y1='196.60' x2='1294.94' y2='196.60' style='stroke-width: 1.07;' clip-path='url(#cpMTQ0LjQ3fDEzODMuMzF8NzMyLjU3fDc0LjY5)' />
<line x1='1174.38' y1='104.59' x2='1321.43' y2='104.59' style='stroke-width: 1.07;' clip-path='url(#cpMTQ0LjQ3fDEzODMuMzF8NzMyLjU3fDc0LjY5)' />
<line x1='1174.38' y1='150.60' x2='1290.58' y2='150.60' style='stroke-width: 1.07;' clip-path='url(#cpMTQ0LjQ3fDEzODMuMzF8NzMyLjU3fDc0LjY5)' />
<line x1='878.63' y1='334.62' x2='922.57' y2='334.62' style='stroke-width: 1.07;' clip-path='url(#cpMTQ0LjQ3fDEzODMuMzF8NzMyLjU3fDc0LjY5)' />
<line x1='608.72' y1='610.65' x2='692.19' y2='610.65' style='stroke-width: 1.07;' clip-path='url(#cpMTQ0LjQ3fDEzODMuMzF8NzMyLjU3fDc0LjY5)' />
<line x1='608.72' y1='564.65' x2='1321.43' y2='564.65' style='stroke-width: 1.07;' clip-path='url(#cpMTQ0LjQ3fDEzODMuMzF8NzMyLjU3fDc0LjY5)' />
<line x1='207.20' y1='512.98' x2='207.20' y2='512.98' style='stroke-width: 1.07;' clip-path='url(#cpMTQ0LjQ3fDEzODMuMzF8NzMyLjU3fDc0LjY5)' />
<line x1='207.20' y1='438.31' x2='292.86' y2='438.31' style='stroke-width: 1.07;' clip-path='url(#cpMTQ0LjQ3fDEzODMuMzF8NzMyLjU3fDc0LjY5)' />
<line x1='292.86' y1='380.99' x2='476.53' y2='380.99' style='stroke-width: 1.07;' clip-path='url(#cpMTQ0LjQ3fDEzODMuMzF8NzMyLjU3fDc0LjY5)' />
<line x1='476.53' y1='335.34' x2='661.73' y2='335.34' style='stroke-width: 1.07;' clip-path='url(#cpMTQ0LjQ3fDEzODMuMzF8NzMyLjU3fDc0LjY5)' />
<line x1='661.73' y1='290.05' x2='878.63' y2='290.05' style='stroke-width: 1.07;' clip-path='url(#cpMTQ0LjQ3fDEzODMuMzF8NzMyLjU3fDc0LjY5)' />
<line x1='878.63' y1='245.49' x2='978.51' y2='245.49' style='stroke-width: 1.07;' clip-path='url(#cpMTQ0LjQ3fDEzODMuMzF8NzMyLjU3fDc0LjY5)' />
<line x1='978.51' y1='202.36' x2='1061.74' y2='202.36' style='stroke-width: 1.07;' clip-path='url(#cpMTQ0LjQ3fDEzODMuMzF8NzMyLjU3fDc0LjY5)' />
<line x1='1061.74' y1='162.10' x2='1082.17' y2='162.10' style='stroke-width: 1.07;' clip-path='url(#cpMTQ0LjQ3fDEzODMuMzF8NzMyLjU3fDc0LjY5)' />
<line x1='1082.17' y1='127.60' x2='1174.38' y2='127.60' style='stroke-width: 1.07;' clip-path='url(#cpMTQ0LjQ3fDEzODMuMzF8NzMyLjU3fDc0LjY5)' />
<line x1='292.86' y1='495.64' x2='752.74' y2='495.64' style='stroke-width: 1.07;' clip-path='url(#cpMTQ0LjQ3fDEzODMuMzF8NzMyLjU3fDc0LjY5)' />
<line x1='207.20' y1='587.65' x2='608.72' y2='587.65' style='stroke-width: 1.07;' clip-path='url(#cpMTQ0LjQ3fDEzODMuMzF8NzMyLjU3fDc0LjY5)' />
<line x1='752.74' y1='495.64' x2='752.74' y2='518.64' style='stroke-width: 1.07;' clip-path='url(#cpMTQ0LjQ3fDEzODMuMzF8NzMyLjU3fDc0LjY5)' />
<line x1='752.74' y1='495.64' x2='752.74' y2='472.64' style='stroke-width: 1.07;' clip-path='url(#cpMTQ0LjQ3fDEzODMuMzF8NzMyLjU3fDc0LjY5)' />
<line x1='476.53' y1='380.99' x2='476.53' y2='426.63' style='stroke-width: 1.07;' clip-path='url(#cpMTQ0LjQ3fDEzODMuMzF8NzMyLjU3fDc0LjY5)' />
<line x1='661.73' y1='335.34' x2='661.73' y2='380.63' style='stroke-width: 1.07;' clip-path='url(#cpMTQ0LjQ3fDEzODMuMzF8NzMyLjU3fDc0LjY5)' />
<line x1='978.51' y1='245.49' x2='978.51' y2='288.62' style='stroke-width: 1.07;' clip-path='url(#cpMTQ0LjQ3fDEzODMuMzF8NzMyLjU3fDc0LjY5)' />
<line x1='1061.74' y1='202.36' x2='1061.74' y2='242.61' style='stroke-width: 1.07;' clip-path='url(#cpMTQ0LjQ3fDEzODMuMzF8NzMyLjU3fDc0LjY5)' />
<line x1='1082.17' y1='162.10' x2='1082.17' y2='196.60' style='stroke-width: 1.07;' clip-path='url(#cpMTQ0LjQ3fDEzODMuMzF8NzMyLjU3fDc0LjY5)' />
<line x1='1174.38' y1='127.60' x2='1174.38' y2='104.59' style='stroke-width: 1.07;' clip-path='url(#cpMTQ0LjQ3fDEzODMuMzF8NzMyLjU3fDc0LjY5)' />
<line x1='1174.38' y1='127.60' x2='1174.38' y2='150.60' style='stroke-width: 1.07;' clip-path='url(#cpMTQ0LjQ3fDEzODMuMzF8NzMyLjU3fDc0LjY5)' />
<line x1='878.63' y1='290.05' x2='878.63' y2='334.62' style='stroke-width: 1.07;' clip-path='url(#cpMTQ0LjQ3fDEzODMuMzF8NzMyLjU3fDc0LjY5)' />
<line x1='608.72' y1='587.65' x2='608.72' y2='610.65' style='stroke-width: 1.07;' clip-path='url(#cpMTQ0LjQ3fDEzODMuMzF8NzMyLjU3fDc0LjY5)' />
<line x1='608.72' y1='587.65' x2='608.72' y2='564.65' style='stroke-width: 1.07;' clip-path='url(#cpMTQ0LjQ3fDEzODMuMzF8NzMyLjU3fDc0LjY5)' />
<line x1='207.20' y1='512.98' x2='207.20' y2='512.98' style='stroke-width: 1.07;' clip-path='url(#cpMTQ0LjQ3fDEzODMuMzF8NzMyLjU3fDc0LjY5)' />
<line x1='207.20' y1='512.98' x2='207.20' y2='438.31' style='stroke-width: 1.07;' clip-path='url(#cpMTQ0LjQ3fDEzODMuMzF8NzMyLjU3fDc0LjY5)' />
<line x1='292.86' y1='438.31' x2='292.86' y2='380.99' style='stroke-width: 1.07;' clip-path='url(#cpMTQ0LjQ3fDEzODMuMzF8NzMyLjU3fDc0LjY5)' />
<line x1='476.53' y1='380.99' x2='476.53' y2='335.34' style='stroke-width: 1.07;' clip-path='url(#cpMTQ0LjQ3fDEzODMuMzF8NzMyLjU3fDc0LjY5)' />
<line x1='661.73' y1='335.34' x2='661.73' y2='290.05' style='stroke-width: 1.07;' clip-path='url(#cpMTQ0LjQ3fDEzODMuMzF8NzMyLjU3fDc0LjY5)' />
<line x1='878.63' y1='290.05' x2='878.63' y2='245.49' style='stroke-width: 1.07;' clip-path='url(#cpMTQ0LjQ3fDEzODMuMzF8NzMyLjU3fDc0LjY5)' />
<line x1='978.51' y1='245.49' x2='978.51' y2='202.36' style='stroke-width: 1.07;' clip-path='url(#cpMTQ0LjQ3fDEzODMuMzF8NzMyLjU3fDc0LjY5)' />
<line x1='1061.74' y1='202.36' x2='1061.74' y2='162.10' style='stroke-width: 1.07;' clip-path='url(#cpMTQ0LjQ3fDEzODMuMzF8NzMyLjU3fDc0LjY5)' />
<line x1='1082.17' y1='162.10' x2='1082.17' y2='127.60' style='stroke-width: 1.07;' clip-path='url(#cpMTQ0LjQ3fDEzODMuMzF8NzMyLjU3fDc0LjY5)' />
<line x1='292.86' y1='438.31' x2='292.86' y2='495.64' style='stroke-width: 1.07;' clip-path='url(#cpMTQ0LjQ3fDEzODMuMzF8NzMyLjU3fDc0LjY5)' />
<line x1='207.20' y1='512.98' x2='207.20' y2='587.65' style='stroke-width: 1.07;' clip-path='url(#cpMTQ0LjQ3fDEzODMuMzF8NzMyLjU3fDc0LjY5)' />
<line x1='200.78' y1='702.66' x2='309.94' y2='702.66' style='stroke-width: 1.07; stroke-linecap: butt;' clip-path='url(#cpMTQ0LjQ3fDEzODMuMzF8NzMyLjU3fDc0LjY5)' />
<g clip-path='url(#cpMTQ0LjQ3fDEzODMuMzF8NzMyLjU3fDc0LjY5)'><text x='249.24' y='683.44' style='font-size: 11.04px; font-family: Liberation Sans;' textLength='12.24px' lengthAdjust='spacingAndGlyphs'>17</text></g>
<g clip-path='url(#cpMTQ0LjQ3fDEzODMuMzF8NzMyLjU3fDc0LjY5)'><text x='1327.00' y='568.43' style='font-size: 11.04px; fill: #E69F00; font-family: Liberation Sans;' textLength='39.13px' lengthAdjust='spacingAndGlyphs'>54 MYS</text></g>
<g clip-path='url(#cpMTQ0LjQ3fDEzODMuMzF8NzMyLjU3fDc0LjY5)'><text x='1295.68' y='246.39' style='font-size: 11.04px; fill: #56B4E9; font-family: Liberation Sans;' textLength='37.29px' lengthAdjust='spacingAndGlyphs'>70 AUT</text></g>
<g clip-path='url(#cpMTQ0LjQ3fDEzODMuMzF8NzMyLjU3fDc0LjY5)'><text x='970.88' y='384.41' style='font-size: 11.04px; fill: #009E73; font-family: Liberation Sans;' textLength='37.91px' lengthAdjust='spacingAndGlyphs'>35 PER</text></g>
<g clip-path='url(#cpMTQ0LjQ3fDEzODMuMzF8NzMyLjU3fDc0LjY5)'><text x='1216.68' y='292.40' style='font-size: 11.04px; fill: #0072B2; font-family: Liberation Sans;' textLength='44.63px' lengthAdjust='spacingAndGlyphs'>22b CAN</text></g>
<g clip-path='url(#cpMTQ0LjQ3fDEzODMuMzF8NzMyLjU3fDc0LjY5)'><text x='1300.51' y='200.39' style='font-size: 11.04px; fill: #0072B2; font-family: Liberation Sans;' textLength='44.03px' lengthAdjust='spacingAndGlyphs'>74d USA</text></g>
<g clip-path='url(#cpMTQ0LjQ3fDEzODMuMzF8NzMyLjU3fDc0LjY5)'><text x='1327.00' y='108.37' style='font-size: 11.04px; fill: #0072B2; font-family: Liberation Sans;' textLength='44.03px' lengthAdjust='spacingAndGlyphs'>74e USA</text></g>
<g clip-path='url(#cpMTQ0LjQ3fDEzODMuMzF8NzMyLjU3fDc0LjY5)'><text x='1296.15' y='154.38' style='font-size: 11.04px; fill: #0072B2; font-family: Liberation Sans;' textLength='44.03px' lengthAdjust='spacingAndGlyphs'>74g USA</text></g>
<g clip-path='url(#cpMTQ0LjQ3fDEzODMuMzF8NzMyLjU3fDc0LjY5)'><text x='928.15' y='338.40' style='font-size: 11.04px; fill: #D55E00; font-family: Liberation Sans;' textLength='34.24px' lengthAdjust='spacingAndGlyphs'>11 IND</text></g>
<g clip-path='url(#cpMTQ0LjQ3fDEzODMuMzF8NzMyLjU3fDc0LjY5)'><text x='697.76' y='614.43' style='font-size: 11.04px; fill: #D55E00; font-family: Liberation Sans;' textLength='36.69px' lengthAdjust='spacingAndGlyphs'>33 NPL</text></g>
<g clip-path='url(#cpMTQ0LjQ3fDEzODMuMzF8NzMyLjU3fDc0LjY5)'><text x='758.31' y='522.42' style='font-size: 11.04px; fill: #CC79A7; font-family: Liberation Sans;' textLength='44.63px' lengthAdjust='spacingAndGlyphs'>49b ZMB</text></g>
<g clip-path='url(#cpMTQ0LjQ3fDEzODMuMzF8NzMyLjU3fDc0LjY5)'><text x='1250.57' y='476.42' style='font-size: 11.04px; fill: #CC79A7; font-family: Liberation Sans;' textLength='39.13px' lengthAdjust='spacingAndGlyphs'>50 NGA</text></g>
<g clip-path='url(#cpMTQ0LjQ3fDEzODMuMzF8NzMyLjU3fDc0LjY5)'><text x='910.00' y='430.41' style='font-size: 11.04px; fill: #CC79A7; font-family: Liberation Sans;' textLength='37.91px' lengthAdjust='spacingAndGlyphs'>72 KEN</text></g>
<defs>
  <clipPath id='cpMC4wMHwxNDQwLjAwfDc5Mi4wMHwwLjAw'>
    <rect x='0.00' y='0.00' width='1440.00' height='792.00' />
  </clipPath>
</defs>
<rect x='75.30' y='15.02' width='138.33' height='119.34' style='stroke-width: 1.07; stroke: none; fill: #FFFFFF;' clip-path='url(#cpMC4wMHwxNDQwLjAwfDc5Mi4wMHwwLjAw)' />
<g clip-path='url(#cpMC4wMHwxNDQwLjAwfDc5Mi4wMHwwLjAw)'><text x='86.56' y='37.43' style='font-size: 11.04px; fill: #E69F00; font-family: Liberation Sans;' textLength='6.12px' lengthAdjust='spacingAndGlyphs'>a</text></g>
<g clip-path='url(#cpMC4wMHwxNDQwLjAwfDc5Mi4wMHwwLjAw)'><text x='86.56' y='54.71' style='font-size: 11.04px; fill: #56B4E9; font-family: Liberation Sans;' textLength='6.12px' lengthAdjust='spacingAndGlyphs'>a</text></g>
<g clip-path='url(#cpMC4wMHwxNDQwLjAwfDc5Mi4wMHwwLjAw)'><text x='86.56' y='71.99' style='font-size: 11.04px; fill: #009E73; font-family: Liberation Sans;' textLength='6.12px' lengthAdjust='spacingAndGlyphs'>a</text></g>
<g clip-path='url(#cpMC4wMHwxNDQwLjAwfDc5Mi4wMHwwLjAw)'><text x='86.56' y='89.27' style='font-size: 11.04px; fill: #0072B2; font-family: Liberation Sans;' textLength='6.12px' lengthAdjust='spacingAndGlyphs'>a</text></g>
<g clip-path='url(#cpMC4wMHwxNDQwLjAwfDc5Mi4wMHwwLjAw)'><text x='86.56' y='106.55' style='font-size: 11.04px; fill: #D55E00; font-family: Liberation Sans;' textLength='6.12px' lengthAdjust='spacingAndGlyphs'>a</text></g>
<g clip-path='url(#cpMC4wMHwxNDQwLjAwfDc5Mi4wMHwwLjAw)'><text x='86.56' y='123.83' style='font-size: 11.04px; fill: #CC79A7; font-family: Liberation Sans;' textLength='6.12px' lengthAdjust='spacingAndGlyphs'>a</text></g>
<g clip-path='url(#cpMC4wMHwxNDQwLjAwfDc5Mi4wMHwwLjAw)'><text x='100.41' y='36.74' style='font-size: 8.80px; font-family: Liberation Sans;' textLength='75.53px' lengthAdjust='spacingAndGlyphs'>East Asia &amp; Pacific</text></g>
<g clip-path='url(#cpMC4wMHwxNDQwLjAwfDc5Mi4wMHwwLjAw)'><text x='100.41' y='54.02' style='font-size: 8.80px; font-family: Liberation Sans;' textLength='89.05px' lengthAdjust='spacingAndGlyphs'>Europe &amp; Central Asia</text></g>
<g clip-path='url(#cpMC4wMHwxNDQwLjAwfDc5Mi4wMHwwLjAw)'><text x='100.41' y='71.30' style='font-size: 8.80px; font-family: Liberation Sans;' textLength='107.56px' lengthAdjust='spacingAndGlyphs'>Latin America &amp; Caribbean</text></g>
<g clip-path='url(#cpMC4wMHwxNDQwLjAwfDc5Mi4wMHwwLjAw)'><text x='100.41' y='88.58' style='font-size: 8.80px; font-family: Liberation Sans;' textLength='57.52px' lengthAdjust='spacingAndGlyphs'>North America</text></g>
<g clip-path='url(#cpMC4wMHwxNDQwLjAwfDc5Mi4wMHwwLjAw)'><text x='100.41' y='105.86' style='font-size: 8.80px; font-family: Liberation Sans;' textLength='43.53px' lengthAdjust='spacingAndGlyphs'>South Asia</text></g>
<g clip-path='url(#cpMC4wMHwxNDQwLjAwfDc5Mi4wMHwwLjAw)'><text x='100.41' y='123.14' style='font-size: 8.80px; font-family: Liberation Sans;' textLength='78.54px' lengthAdjust='spacingAndGlyphs'>Sub-Saharan Africa</text></g>
<g clip-path='url(#cpMC4wMHwxNDQwLjAwfDc5Mi4wMHwwLjAw)'><text x='663.81' y='65.63' style='font-size: 13.20px; font-family: Liberation Sans;' textLength='200.16px' lengthAdjust='spacingAndGlyphs'> Eubacterium eligens ATCC 27750</text></g>
</svg>
