<?xml version='1.0' encoding='UTF-8' ?>
<svg xmlns='http://www.w3.org/2000/svg' xmlns:xlink='http://www.w3.org/1999/xlink' viewBox='0 0 1440.00 792.00'>
<defs>
  <style type='text/css'><![CDATA[
    line, polyline, polygon, path, rect, circle {
      fill: none;
      stroke: #000000;
      stroke-linecap: round;
      stroke-linejoin: round;
      stroke-miterlimit: 10.00;
    }
  ]]></style>
</defs>
<rect width='100%' height='100%' style='stroke: none; fill: #FFFFFF;'/>
<rect x='0.00' y='0.00' width='1440.00' height='792.00' style='stroke-width: 1.07; stroke: #FFFFFF; fill: #FFFFFF;' />
<defs>
  <clipPath id='cpMTQ0LjQ3fDEzODMuMzF8NzMyLjU3fDc0LjY5'>
    <rect x='144.47' y='74.69' width='1238.84' height='657.88' />
  </clipPath>
</defs>
<rect x='144.47' y='74.69' width='1238.84' height='657.88' style='stroke-width: 1.07; stroke: #FFFFFF; fill: #FFFFFF;' clip-path='url(#cpMTQ0LjQ3fDEzODMuMzF8NzMyLjU3fDc0LjY5)' />
<line x1='201.44' y1='503.31' x2='1321.40' y2='503.31' style='stroke-width: 1.07;' clip-path='url(#cpMTQ0LjQ3fDEzODMuMzF8NzMyLjU3fDc0LjY5)' />
<line x1='532.34' y1='403.63' x2='532.34' y2='403.63' style='stroke-width: 1.07;' clip-path='url(#cpMTQ0LjQ3fDEzODMuMzF8NzMyLjU3fDc0LjY5)' />
<line x1='946.66' y1='303.95' x2='1285.41' y2='303.95' style='stroke-width: 1.07;' clip-path='url(#cpMTQ0LjQ3fDEzODMuMzF8NzMyLjU3fDc0LjY5)' />
<line x1='1024.43' y1='204.27' x2='1321.40' y2='204.27' style='stroke-width: 1.07;' clip-path='url(#cpMTQ0LjQ3fDEzODMuMzF8NzMyLjU3fDc0LjY5)' />
<line x1='1024.43' y1='104.59' x2='1301.97' y2='104.59' style='stroke-width: 1.07;' clip-path='url(#cpMTQ0LjQ3fDEzODMuMzF8NzMyLjU3fDc0LjY5)' />
<line x1='201.44' y1='409.86' x2='201.44' y2='409.86' style='stroke-width: 1.07;' clip-path='url(#cpMTQ0LjQ3fDEzODMuMzF8NzMyLjU3fDc0LjY5)' />
<line x1='201.44' y1='316.41' x2='532.34' y2='316.41' style='stroke-width: 1.07;' clip-path='url(#cpMTQ0LjQ3fDEzODMuMzF8NzMyLjU3fDc0LjY5)' />
<line x1='532.34' y1='229.19' x2='946.66' y2='229.19' style='stroke-width: 1.07;' clip-path='url(#cpMTQ0LjQ3fDEzODMuMzF8NzMyLjU3fDc0LjY5)' />
<line x1='946.66' y1='154.43' x2='1024.43' y2='154.43' style='stroke-width: 1.07;' clip-path='url(#cpMTQ0LjQ3fDEzODMuMzF8NzMyLjU3fDc0LjY5)' />
<line x1='201.44' y1='409.86' x2='201.44' y2='503.31' style='stroke-width: 1.07;' clip-path='url(#cpMTQ0LjQ3fDEzODMuMzF8NzMyLjU3fDc0LjY5)' />
<line x1='532.34' y1='316.41' x2='532.34' y2='403.63' style='stroke-width: 1.07;' clip-path='url(#cpMTQ0LjQ3fDEzODMuMzF8NzMyLjU3fDc0LjY5)' />
<line x1='946.66' y1='229.19' x2='946.66' y2='303.95' style='stroke-width: 1.07;' clip-path='url(#cpMTQ0LjQ3fDEzODMuMzF8NzMyLjU3fDc0LjY5)' />
<line x1='1024.43' y1='154.43' x2='1024.43' y2='204.27' style='stroke-width: 1.07;' clip-path='url(#cpMTQ0LjQ3fDEzODMuMzF8NzMyLjU3fDc0LjY5)' />
<line x1='1024.43' y1='154.43' x2='1024.43' y2='104.59' style='stroke-width: 1.07;' clip-path='url(#cpMTQ0LjQ3fDEzODMuMzF8NzMyLjU3fDc0LjY5)' />
<line x1='201.44' y1='409.86' x2='201.44' y2='409.86' style='stroke-width: 1.07;' clip-path='url(#cpMTQ0LjQ3fDEzODMuMzF8NzMyLjU3fDc0LjY5)' />
<line x1='201.44' y1='409.86' x2='201.44' y2='316.41' style='stroke-width: 1.07;' clip-path='url(#cpMTQ0LjQ3fDEzODMuMzF8NzMyLjU3fDc0LjY5)' />
<line x1='532.34' y1='316.41' x2='532.34' y2='229.19' style='stroke-width: 1.07;' clip-path='url(#cpMTQ0LjQ3fDEzODMuMzF8NzMyLjU3fDc0LjY5)' />
<line x1='946.66' y1='229.19' x2='946.66' y2='154.43' style='stroke-width: 1.07;' clip-path='url(#cpMTQ0LjQ3fDEzODMuMzF8NzMyLjU3fDc0LjY5)' />
<line x1='200.78' y1='702.66' x2='312.42' y2='702.66' style='stroke-width: 1.07; stroke-linecap: butt;' clip-path='url(#cpMTQ0LjQ3fDEzODMuMzF8NzMyLjU3fDc0LjY5)' />
<g clip-path='url(#cpMTQ0LjQ3fDEzODMuMzF8NzMyLjU3fDc0LjY5)'><text x='247.43' y='656.61' style='font-size: 11.04px; font-family: Liberation Sans;' textLength='18.35px' lengthAdjust='spacingAndGlyphs'>171</text></g>
<g clip-path='url(#cpMTQ0LjQ3fDEzODMuMzF8NzMyLjU3fDc0LjY5)'><text x='1307.57' y='108.37' style='font-size: 11.04px; fill: #56B4E9; font-family: Liberation Sans;' textLength='39.74px' lengthAdjust='spacingAndGlyphs'>65 MDA</text></g>
<g clip-path='url(#cpMTQ0LjQ3fDEzODMuMzF8NzMyLjU3fDc0LjY5)'><text x='537.94' y='407.41' style='font-size: 11.04px; fill: #0072B2; font-family: Liberation Sans;' textLength='44.03px' lengthAdjust='spacingAndGlyphs'>74e USA</text></g>
<g clip-path='url(#cpMTQ0LjQ3fDEzODMuMzF8NzMyLjU3fDc0LjY5)'><text x='1327.00' y='507.09' style='font-size: 11.04px; fill: #D55E00; font-family: Liberation Sans;' textLength='34.24px' lengthAdjust='spacingAndGlyphs'>11 IND</text></g>
<g clip-path='url(#cpMTQ0LjQ3fDEzODMuMzF8NzMyLjU3fDc0LjY5)'><text x='1291.01' y='307.73' style='font-size: 11.04px; fill: #CC79A7; font-family: Liberation Sans;' textLength='38.51px' lengthAdjust='spacingAndGlyphs'>49 ZMB</text></g>
<g clip-path='url(#cpMTQ0LjQ3fDEzODMuMzF8NzMyLjU3fDc0LjY5)'><text x='1327.00' y='208.05' style='font-size: 11.04px; fill: #CC79A7; font-family: Liberation Sans;' textLength='36.07px' lengthAdjust='spacingAndGlyphs'>15 TZA</text></g>
<defs>
  <clipPath id='cpMC4wMHwxNDQwLjAwfDc5Mi4wMHwwLjAw'>
    <rect x='0.00' y='0.00' width='1440.00' height='792.00' />
  </clipPath>
</defs>
<rect x='84.56' y='32.30' width='119.82' height='84.78' style='stroke-width: 1.07; stroke: none; fill: #FFFFFF;' clip-path='url(#cpMC4wMHwxNDQwLjAwfDc5Mi4wMHwwLjAw)' />
<g clip-path='url(#cpMC4wMHwxNDQwLjAwfDc5Mi4wMHwwLjAw)'><text x='95.81' y='54.71' style='font-size: 11.04px; fill: #56B4E9; font-family: Liberation Sans;' textLength='6.12px' lengthAdjust='spacingAndGlyphs'>a</text></g>
<g clip-path='url(#cpMC4wMHwxNDQwLjAwfDc5Mi4wMHwwLjAw)'><text x='95.81' y='71.99' style='font-size: 11.04px; fill: #0072B2; font-family: Liberation Sans;' textLength='6.12px' lengthAdjust='spacingAndGlyphs'>a</text></g>
<g clip-path='url(#cpMC4wMHwxNDQwLjAwfDc5Mi4wMHwwLjAw)'><text x='95.81' y='89.27' style='font-size: 11.04px; fill: #D55E00; font-family: Liberation Sans;' textLength='6.12px' lengthAdjust='spacingAndGlyphs'>a</text></g>
<g clip-path='url(#cpMC4wMHwxNDQwLjAwfDc5Mi4wMHwwLjAw)'><text x='95.81' y='106.55' style='font-size: 11.04px; fill: #CC79A7; font-family: Liberation Sans;' textLength='6.12px' lengthAdjust='spacingAndGlyphs'>a</text></g>
<g clip-path='url(#cpMC4wMHwxNDQwLjAwfDc5Mi4wMHwwLjAw)'><text x='109.67' y='54.02' style='font-size: 8.80px; font-family: Liberation Sans;' textLength='89.05px' lengthAdjust='spacingAndGlyphs'>Europe &amp; Central Asia</text></g>
<g clip-path='url(#cpMC4wMHwxNDQwLjAwfDc5Mi4wMHwwLjAw)'><text x='109.67' y='71.30' style='font-size: 8.80px; font-family: Liberation Sans;' textLength='57.52px' lengthAdjust='spacingAndGlyphs'>North America</text></g>
<g clip-path='url(#cpMC4wMHwxNDQwLjAwfDc5Mi4wMHwwLjAw)'><text x='109.67' y='88.58' style='font-size: 8.80px; font-family: Liberation Sans;' textLength='43.53px' lengthAdjust='spacingAndGlyphs'>South Asia</text></g>
<g clip-path='url(#cpMC4wMHwxNDQwLjAwfDc5Mi4wMHwwLjAw)'><text x='109.67' y='105.86' style='font-size: 8.80px; font-family: Liberation Sans;' textLength='78.54px' lengthAdjust='spacingAndGlyphs'>Sub-Saharan Africa</text></g>
<g clip-path='url(#cpMC4wMHwxNDQwLjAwfDc5Mi4wMHwwLjAw)'><text x='620.81' y='65.63' style='font-size: 13.20px; font-family: Liberation Sans;' textLength='286.15px' lengthAdjust='spacingAndGlyphs'> Lactobacillus delbrueckii subsp. bulgaricus ND02</text></g>
</svg>
