<?xml version='1.0' encoding='UTF-8' ?>
<svg xmlns='http://www.w3.org/2000/svg' xmlns:xlink='http://www.w3.org/1999/xlink' viewBox='0 0 1440.00 792.00'>
<defs>
  <style type='text/css'><![CDATA[
    line, polyline, polygon, path, rect, circle {
      fill: none;
      stroke: #000000;
      stroke-linecap: round;
      stroke-linejoin: round;
      stroke-miterlimit: 10.00;
    }
  ]]></style>
</defs>
<rect width='100%' height='100%' style='stroke: none; fill: #FFFFFF;'/>
<rect x='0.00' y='0.00' width='1440.00' height='792.00' style='stroke-width: 1.07; stroke: #FFFFFF; fill: #FFFFFF;' />
<defs>
  <clipPath id='cpMTQ0LjQ3fDEzODMuMzF8NzMyLjU3fDc0LjY5'>
    <rect x='144.47' y='74.69' width='1238.84' height='657.88' />
  </clipPath>
</defs>
<rect x='144.47' y='74.69' width='1238.84' height='657.88' style='stroke-width: 1.07; stroke: #FFFFFF; fill: #FFFFFF;' clip-path='url(#cpMTQ0LjQ3fDEzODMuMzF8NzMyLjU3fDc0LjY5)' />
<line x1='497.30' y1='503.31' x2='1321.39' y2='503.31' style='stroke-width: 1.07;' clip-path='url(#cpMTQ0LjQ3fDEzODMuMzF8NzMyLjU3fDc0LjY5)' />
<line x1='497.30' y1='569.76' x2='497.30' y2='569.76' style='stroke-width: 1.07;' clip-path='url(#cpMTQ0LjQ3fDEzODMuMzF8NzMyLjU3fDc0LjY5)' />
<line x1='1047.69' y1='171.05' x2='1321.39' y2='171.05' style='stroke-width: 1.07;' clip-path='url(#cpMTQ0LjQ3fDEzODMuMzF8NzMyLjU3fDc0LjY5)' />
<line x1='1047.69' y1='104.59' x2='1144.39' y2='104.59' style='stroke-width: 1.07;' clip-path='url(#cpMTQ0LjQ3fDEzODMuMzF8NzMyLjU3fDc0LjY5)' />
<line x1='447.40' y1='303.95' x2='447.40' y2='303.95' style='stroke-width: 1.07;' clip-path='url(#cpMTQ0LjQ3fDEzODMuMzF8NzMyLjU3fDc0LjY5)' />
<line x1='607.94' y1='436.85' x2='1139.78' y2='436.85' style='stroke-width: 1.07;' clip-path='url(#cpMTQ0LjQ3fDEzODMuMzF8NzMyLjU3fDc0LjY5)' />
<line x1='607.94' y1='370.40' x2='618.04' y2='370.40' style='stroke-width: 1.07;' clip-path='url(#cpMTQ0LjQ3fDEzODMuMzF8NzMyLjU3fDc0LjY5)' />
<line x1='758.52' y1='237.50' x2='758.52' y2='237.50' style='stroke-width: 1.07;' clip-path='url(#cpMTQ0LjQ3fDEzODMuMzF8NzMyLjU3fDc0LjY5)' />
<line x1='201.09' y1='430.62' x2='201.09' y2='430.62' style='stroke-width: 1.07;' clip-path='url(#cpMTQ0LjQ3fDEzODMuMzF8NzMyLjU3fDc0LjY5)' />
<line x1='201.09' y1='536.53' x2='497.30' y2='536.53' style='stroke-width: 1.07;' clip-path='url(#cpMTQ0LjQ3fDEzODMuMzF8NzMyLjU3fDc0LjY5)' />
<line x1='201.09' y1='324.72' x2='381.79' y2='324.72' style='stroke-width: 1.07;' clip-path='url(#cpMTQ0LjQ3fDEzODMuMzF8NzMyLjU3fDc0LjY5)' />
<line x1='381.79' y1='245.80' x2='447.40' y2='245.80' style='stroke-width: 1.07;' clip-path='url(#cpMTQ0LjQ3fDEzODMuMzF8NzMyLjU3fDc0LjY5)' />
<line x1='447.40' y1='187.66' x2='758.52' y2='187.66' style='stroke-width: 1.07;' clip-path='url(#cpMTQ0LjQ3fDEzODMuMzF8NzMyLjU3fDc0LjY5)' />
<line x1='758.52' y1='137.82' x2='1047.69' y2='137.82' style='stroke-width: 1.07;' clip-path='url(#cpMTQ0LjQ3fDEzODMuMzF8NzMyLjU3fDc0LjY5)' />
<line x1='381.79' y1='403.63' x2='607.94' y2='403.63' style='stroke-width: 1.07;' clip-path='url(#cpMTQ0LjQ3fDEzODMuMzF8NzMyLjU3fDc0LjY5)' />
<line x1='497.30' y1='536.53' x2='497.30' y2='503.31' style='stroke-width: 1.07;' clip-path='url(#cpMTQ0LjQ3fDEzODMuMzF8NzMyLjU3fDc0LjY5)' />
<line x1='497.30' y1='536.53' x2='497.30' y2='569.76' style='stroke-width: 1.07;' clip-path='url(#cpMTQ0LjQ3fDEzODMuMzF8NzMyLjU3fDc0LjY5)' />
<line x1='1047.69' y1='137.82' x2='1047.69' y2='171.05' style='stroke-width: 1.07;' clip-path='url(#cpMTQ0LjQ3fDEzODMuMzF8NzMyLjU3fDc0LjY5)' />
<line x1='1047.69' y1='137.82' x2='1047.69' y2='104.59' style='stroke-width: 1.07;' clip-path='url(#cpMTQ0LjQ3fDEzODMuMzF8NzMyLjU3fDc0LjY5)' />
<line x1='447.40' y1='245.80' x2='447.40' y2='303.95' style='stroke-width: 1.07;' clip-path='url(#cpMTQ0LjQ3fDEzODMuMzF8NzMyLjU3fDc0LjY5)' />
<line x1='607.94' y1='403.63' x2='607.94' y2='436.85' style='stroke-width: 1.07;' clip-path='url(#cpMTQ0LjQ3fDEzODMuMzF8NzMyLjU3fDc0LjY5)' />
<line x1='607.94' y1='403.63' x2='607.94' y2='370.40' style='stroke-width: 1.07;' clip-path='url(#cpMTQ0LjQ3fDEzODMuMzF8NzMyLjU3fDc0LjY5)' />
<line x1='758.52' y1='187.66' x2='758.52' y2='237.50' style='stroke-width: 1.07;' clip-path='url(#cpMTQ0LjQ3fDEzODMuMzF8NzMyLjU3fDc0LjY5)' />
<line x1='201.09' y1='430.62' x2='201.09' y2='430.62' style='stroke-width: 1.07;' clip-path='url(#cpMTQ0LjQ3fDEzODMuMzF8NzMyLjU3fDc0LjY5)' />
<line x1='201.09' y1='430.62' x2='201.09' y2='536.53' style='stroke-width: 1.07;' clip-path='url(#cpMTQ0LjQ3fDEzODMuMzF8NzMyLjU3fDc0LjY5)' />
<line x1='201.09' y1='430.62' x2='201.09' y2='324.72' style='stroke-width: 1.07;' clip-path='url(#cpMTQ0LjQ3fDEzODMuMzF8NzMyLjU3fDc0LjY5)' />
<line x1='381.79' y1='324.72' x2='381.79' y2='245.80' style='stroke-width: 1.07;' clip-path='url(#cpMTQ0LjQ3fDEzODMuMzF8NzMyLjU3fDc0LjY5)' />
<line x1='447.40' y1='245.80' x2='447.40' y2='187.66' style='stroke-width: 1.07;' clip-path='url(#cpMTQ0LjQ3fDEzODMuMzF8NzMyLjU3fDc0LjY5)' />
<line x1='758.52' y1='187.66' x2='758.52' y2='137.82' style='stroke-width: 1.07;' clip-path='url(#cpMTQ0LjQ3fDEzODMuMzF8NzMyLjU3fDc0LjY5)' />
<line x1='381.79' y1='324.72' x2='381.79' y2='403.63' style='stroke-width: 1.07;' clip-path='url(#cpMTQ0LjQ3fDEzODMuMzF8NzMyLjU3fDc0LjY5)' />
<line x1='200.78' y1='702.66' x2='312.79' y2='702.66' style='stroke-width: 1.07; stroke-linecap: butt;' clip-path='url(#cpMTQ0LjQ3fDEzODMuMzF8NzMyLjU3fDc0LjY5)' />
<g clip-path='url(#cpMTQ0LjQ3fDEzODMuMzF8NzMyLjU3fDc0LjY5)'><text x='247.61' y='673.22' style='font-size: 11.04px; font-family: Liberation Sans;' textLength='18.35px' lengthAdjust='spacingAndGlyphs'>365</text></g>
<g clip-path='url(#cpMTQ0LjQ3fDEzODMuMzF8NzMyLjU3fDc0LjY5)'><text x='502.90' y='573.54' style='font-size: 11.04px; fill: #E69F00; font-family: Liberation Sans;' textLength='39.74px' lengthAdjust='spacingAndGlyphs'>48 VNM</text></g>
<g clip-path='url(#cpMTQ0LjQ3fDEzODMuMzF8NzMyLjU3fDc0LjY5)'><text x='1149.99' y='108.37' style='font-size: 11.04px; fill: #E69F00; font-family: Liberation Sans;' textLength='39.13px' lengthAdjust='spacingAndGlyphs'>54 MYS</text></g>
<g clip-path='url(#cpMTQ0LjQ3fDEzODMuMzF8NzMyLjU3fDc0LjY5)'><text x='1145.38' y='440.64' style='font-size: 11.04px; fill: #56B4E9; font-family: Liberation Sans;' textLength='39.74px' lengthAdjust='spacingAndGlyphs'>59 GEO</text></g>
<g clip-path='url(#cpMTQ0LjQ3fDEzODMuMzF8NzMyLjU3fDc0LjY5)'><text x='1327.00' y='507.09' style='font-size: 11.04px; fill: #CC79A7; font-family: Liberation Sans;' textLength='39.12px' lengthAdjust='spacingAndGlyphs'>44 TGO</text></g>
<g clip-path='url(#cpMTQ0LjQ3fDEzODMuMzF8NzMyLjU3fDc0LjY5)'><text x='1327.00' y='174.83' style='font-size: 11.04px; fill: #CC79A7; font-family: Liberation Sans;' textLength='36.07px' lengthAdjust='spacingAndGlyphs'>15 TZA</text></g>
<g clip-path='url(#cpMTQ0LjQ3fDEzODMuMzF8NzMyLjU3fDc0LjY5)'><text x='453.00' y='307.73' style='font-size: 11.04px; fill: #CC79A7; font-family: Liberation Sans;' textLength='44.63px' lengthAdjust='spacingAndGlyphs'>49b ZMB</text></g>
<g clip-path='url(#cpMTQ0LjQ3fDEzODMuMzF8NzMyLjU3fDc0LjY5)'><text x='623.64' y='374.18' style='font-size: 11.04px; fill: #CC79A7; font-family: Liberation Sans;' textLength='31.79px' lengthAdjust='spacingAndGlyphs'>8 SEN</text></g>
<g clip-path='url(#cpMTQ0LjQ3fDEzODMuMzF8NzMyLjU3fDc0LjY5)'><text x='764.12' y='241.28' style='font-size: 11.04px; fill: #CC79A7; font-family: Liberation Sans;' textLength='33.63px' lengthAdjust='spacingAndGlyphs'>13 CIV</text></g>
<defs>
  <clipPath id='cpMC4wMHwxNDQwLjAwfDc5Mi4wMHwwLjAw'>
    <rect x='0.00' y='0.00' width='1440.00' height='792.00' />
  </clipPath>
</defs>
<rect x='84.56' y='40.94' width='119.82' height='67.50' style='stroke-width: 1.07; stroke: none; fill: #FFFFFF;' clip-path='url(#cpMC4wMHwxNDQwLjAwfDc5Mi4wMHwwLjAw)' />
<g clip-path='url(#cpMC4wMHwxNDQwLjAwfDc5Mi4wMHwwLjAw)'><text x='95.81' y='63.35' style='font-size: 11.04px; fill: #E69F00; font-family: Liberation Sans;' textLength='6.12px' lengthAdjust='spacingAndGlyphs'>a</text></g>
<g clip-path='url(#cpMC4wMHwxNDQwLjAwfDc5Mi4wMHwwLjAw)'><text x='95.81' y='80.63' style='font-size: 11.04px; fill: #56B4E9; font-family: Liberation Sans;' textLength='6.12px' lengthAdjust='spacingAndGlyphs'>a</text></g>
<g clip-path='url(#cpMC4wMHwxNDQwLjAwfDc5Mi4wMHwwLjAw)'><text x='95.81' y='97.91' style='font-size: 11.04px; fill: #CC79A7; font-family: Liberation Sans;' textLength='6.12px' lengthAdjust='spacingAndGlyphs'>a</text></g>
<g clip-path='url(#cpMC4wMHwxNDQwLjAwfDc5Mi4wMHwwLjAw)'><text x='109.67' y='62.66' style='font-size: 8.80px; font-family: Liberation Sans;' textLength='75.53px' lengthAdjust='spacingAndGlyphs'>East Asia &amp; Pacific</text></g>
<g clip-path='url(#cpMC4wMHwxNDQwLjAwfDc5Mi4wMHwwLjAw)'><text x='109.67' y='79.94' style='font-size: 8.80px; font-family: Liberation Sans;' textLength='89.05px' lengthAdjust='spacingAndGlyphs'>Europe &amp; Central Asia</text></g>
<g clip-path='url(#cpMC4wMHwxNDQwLjAwfDc5Mi4wMHwwLjAw)'><text x='109.67' y='97.22' style='font-size: 8.80px; font-family: Liberation Sans;' textLength='78.54px' lengthAdjust='spacingAndGlyphs'>Sub-Saharan Africa</text></g>
<g clip-path='url(#cpMC4wMHwxNDQwLjAwfDc5Mi4wMHwwLjAw)'><text x='682.23' y='65.63' style='font-size: 13.20px; font-family: Liberation Sans;' textLength='163.31px' lengthAdjust='spacingAndGlyphs'> Acinetobacter junii strain 65</text></g>
</svg>
